%YAML 1.1
%TAG !u! tag:unity3d.com,2011:
--- !u!114 &11400000
MonoBehaviour:
  m_ObjectHideFlags: 0
  m_CorrespondingSourceObject: {fileID: 0}
  m_PrefabInstance: {fileID: 0}
  m_PrefabAsset: {fileID: 0}
  m_GameObject: {fileID: 0}
  m_Enabled: 1
  m_EditorHideFlags: 0
  m_Script: {fileID: -569673395, guid: 71453d5ee172d144b81430f0f78d6a23, type: 3}
  m_Name: Relink Generator
  m_EditorClassIdentifier: 
  horizontalBetweenZones: 0.05
  horizontalWithinZone: 0.15
  vertical: 0.05
