# MagicaVoxel @ Ephtracy

# material
mtllib slope dual sqr corner.mtl
usemtl palette

# normals
vn -1 0 0
vn 1 0 0
vn 0 0 1
vn 0 0 -1
vn 0 -1 0
vn 0 1 0

# texcoords
vt 0.0175781 0.5
vt 0.958984 0.5
vt 0.994141 0.5

# verts
v -8 0 8
v -8 0 -8
v -8 1 8
v -8 1 7
v -8 1 6
v -8 1 -7
v -8 2 7
v -8 2 6
v -8 2 5
v -8 3 6
v -8 3 5
v -8 3 4
v -8 4 5
v -8 4 4
v -8 4 3
v -8 5 4
v -8 5 3
v -8 5 2
v -8 6 3
v -8 6 2
v -8 6 1
v -8 7 2
v -8 7 1
v -8 7 -0
v -8 8 1
v -8 8 -0
v -8 8 -1
v -8 9 -0
v -8 9 -1
v -8 9 -2
v -8 10 -1
v -8 10 -2
v -8 10 -3
v -8 11 -2
v -8 11 -3
v -8 11 -4
v -8 12 -3
v -8 12 -4
v -8 12 -5
v -8 13 -4
v -8 13 -5
v -8 13 -6
v -8 14 -5
v -8 14 -6
v -8 14 -7
v -8 15 -6
v -8 15 -7
v -8 16 -7
v -8 16 -8
v -7 15 -7
v -7 15 -8
v -7 16 -7
v -7 16 -8
v -6 14 -6
v -6 14 -7
v -6 14 -8
v -6 15 -6
v -6 15 -8
v -5 13 -5
v -5 13 -6
v -5 13 -7
v -5 13 -8
v -5 14 -5
v -5 14 -6
v -5 14 -7
v -5 14 -8
v -4 12 -4
v -4 12 -5
v -4 12 -7
v -4 12 -8
v -4 13 -4
v -4 13 -5
v -4 13 -7
v -4 13 -8
v -3 11 -3
v -3 11 -4
v -3 11 -7
v -3 11 -8
v -3 12 -3
v -3 12 -4
v -3 12 -7
v -3 12 -8
v -2 10 -2
v -2 10 -3
v -2 10 -7
v -2 10 -8
v -2 11 -2
v -2 11 -3
v -2 11 -7
v -2 11 -8
v -1 9 -1
v -1 9 -2
v -1 9 -7
v -1 9 -8
v -1 10 -1
v -1 10 -2
v -1 10 -7
v -1 10 -8
v 0 8 -0
v 0 8 -1
v 0 8 -7
v 0 8 -8
v 0 9 -0
v 0 9 -1
v 0 9 -7
v 0 9 -8
v 1 7 1
v 1 7 -0
v 1 7 -7
v 1 7 -8
v 1 8 1
v 1 8 -0
v 1 8 -7
v 1 8 -8
v 2 6 2
v 2 6 1
v 2 6 -7
v 2 6 -8
v 2 7 2
v 2 7 1
v 2 7 -7
v 2 7 -8
v 3 5 3
v 3 5 2
v 3 5 -7
v 3 5 -8
v 3 6 3
v 3 6 2
v 3 6 -7
v 3 6 -8
v 4 4 4
v 4 4 3
v 4 4 -7
v 4 4 -8
v 4 5 4
v 4 5 3
v 4 5 -7
v 4 5 -8
v 5 3 5
v 5 3 4
v 5 3 -7
v 5 3 -8
v 5 4 5
v 5 4 4
v 5 4 -7
v 5 4 -8
v 6 2 6
v 6 2 5
v 6 2 -7
v 6 2 -8
v 6 3 6
v 6 3 5
v 6 3 -7
v 6 3 -8
v 7 1 7
v 7 1 6
v 7 1 -7
v 7 1 -8
v 7 2 7
v 7 2 6
v 7 2 -7
v 7 2 -8
v 8 0 8
v 8 0 -8
v 8 1 8
v 8 1 -8
v -8 0 8
v -8 1 8
v 8 0 8
v 8 1 8
v -8 1 7
v -8 2 7
v -7 1 7
v -7 2 7
v 6 1 7
v 6 2 7
v 7 1 7
v 7 2 7
v -8 2 6
v -8 3 6
v -7 2 6
v -7 3 6
v 5 2 6
v 5 3 6
v 6 2 6
v 6 3 6
v -8 3 5
v -8 4 5
v -7 3 5
v -7 4 5
v 4 3 5
v 4 4 5
v 5 3 5
v 5 4 5
v -8 4 4
v -8 5 4
v -7 4 4
v -7 5 4
v 3 4 4
v 3 5 4
v 4 4 4
v 4 5 4
v -8 5 3
v -8 6 3
v -7 5 3
v -7 6 3
v 2 5 3
v 2 6 3
v 3 5 3
v 3 6 3
v -8 6 2
v -8 7 2
v -7 6 2
v -7 7 2
v 1 6 2
v 1 7 2
v 2 6 2
v 2 7 2
v -8 7 1
v -8 8 1
v -7 7 1
v -7 8 1
v 0 7 1
v 0 8 1
v 1 7 1
v 1 8 1
v -8 8 -0
v -8 9 -0
v -7 8 -0
v -7 9 -0
v -1 8 -0
v -1 9 -0
v 0 8 -0
v 0 9 -0
v -8 9 -1
v -8 10 -1
v -7 9 -1
v -7 10 -1
v -2 9 -1
v -2 10 -1
v -1 9 -1
v -1 10 -1
v -8 10 -2
v -8 11 -2
v -7 10 -2
v -7 11 -2
v -3 10 -2
v -3 11 -2
v -2 10 -2
v -2 11 -2
v -8 11 -3
v -8 12 -3
v -7 11 -3
v -7 12 -3
v -4 11 -3
v -4 12 -3
v -3 11 -3
v -3 12 -3
v -8 12 -4
v -8 13 -4
v -7 12 -4
v -7 13 -4
v -5 12 -4
v -5 13 -4
v -4 12 -4
v -4 13 -4
v -8 13 -5
v -8 14 -5
v -7 13 -5
v -7 14 -5
v -6 13 -5
v -6 14 -5
v -5 13 -5
v -5 14 -5
v -8 14 -6
v -8 15 -6
v -7 14 -6
v -6 14 -6
v -6 15 -6
v -8 15 -7
v -8 16 -7
v -7 15 -7
v -7 16 -7
v -8 0 -8
v -8 16 -8
v -7 1 -8
v -7 14 -8
v -7 15 -8
v -7 16 -8
v -6 13 -8
v -6 14 -8
v -6 15 -8
v -5 12 -8
v -5 13 -8
v -5 14 -8
v -4 11 -8
v -4 12 -8
v -4 13 -8
v -3 10 -8
v -3 11 -8
v -3 12 -8
v -2 9 -8
v -2 10 -8
v -2 11 -8
v -1 8 -8
v -1 9 -8
v -1 10 -8
v 0 7 -8
v 0 8 -8
v 0 9 -8
v 1 6 -8
v 1 7 -8
v 1 8 -8
v 2 5 -8
v 2 6 -8
v 2 7 -8
v 3 4 -8
v 3 5 -8
v 3 6 -8
v 4 3 -8
v 4 4 -8
v 4 5 -8
v 5 2 -8
v 5 3 -8
v 5 4 -8
v 6 1 -8
v 6 2 -8
v 6 3 -8
v 7 1 -8
v 7 2 -8
v 8 0 -8
v 8 1 -8
v -8 0 8
v 8 0 8
v -7 0 7
v 6 0 7
v 5 0 6
v 6 0 6
v 7 0 6
v 4 0 5
v 5 0 5
v 6 0 5
v 3 0 4
v 4 0 4
v 5 0 4
v 2 0 3
v 3 0 3
v 4 0 3
v 1 0 2
v 2 0 2
v 3 0 2
v 0 0 1
v 1 0 1
v 2 0 1
v -1 0 -0
v 0 0 -0
v 1 0 -0
v -2 0 -1
v -1 0 -1
v 0 0 -1
v -3 0 -2
v -2 0 -2
v -1 0 -2
v -4 0 -3
v -3 0 -3
v -2 0 -3
v -5 0 -4
v -4 0 -4
v -3 0 -4
v -6 0 -5
v -5 0 -5
v -4 0 -5
v -7 0 -6
v -6 0 -6
v -5 0 -6
v -6 0 -7
v 7 0 -7
v -8 0 -8
v 8 0 -8
v -8 1 8
v 8 1 8
v -8 1 7
v -7 1 7
v 6 1 7
v 7 1 7
v 7 1 6
v 7 1 -7
v 7 1 -8
v 8 1 -8
v -8 2 7
v -7 2 7
v 6 2 7
v 7 2 7
v -8 2 6
v -7 2 6
v 5 2 6
v 6 2 6
v 7 2 6
v 6 2 5
v 6 2 -7
v 7 2 -7
v 6 2 -8
v 7 2 -8
v -8 3 6
v -7 3 6
v 5 3 6
v 6 3 6
v -8 3 5
v -7 3 5
v 4 3 5
v 5 3 5
v 6 3 5
v 5 3 4
v 5 3 -7
v 6 3 -7
v 5 3 -8
v 6 3 -8
v -8 4 5
v -7 4 5
v 4 4 5
v 5 4 5
v -8 4 4
v -7 4 4
v 3 4 4
v 4 4 4
v 5 4 4
v 4 4 3
v 4 4 -7
v 5 4 -7
v 4 4 -8
v 5 4 -8
v -8 5 4
v -7 5 4
v 3 5 4
v 4 5 4
v -8 5 3
v -7 5 3
v 2 5 3
v 3 5 3
v 4 5 3
v 3 5 2
v 3 5 -7
v 4 5 -7
v 3 5 -8
v 4 5 -8
v -8 6 3
v -7 6 3
v 2 6 3
v 3 6 3
v -8 6 2
v -7 6 2
v 1 6 2
v 2 6 2
v 3 6 2
v 2 6 1
v 2 6 -7
v 3 6 -7
v 2 6 -8
v 3 6 -8
v -8 7 2
v -7 7 2
v 1 7 2
v 2 7 2
v -8 7 1
v -7 7 1
v 0 7 1
v 1 7 1
v 2 7 1
v 1 7 -0
v 1 7 -7
v 2 7 -7
v 1 7 -8
v 2 7 -8
v -8 8 1
v -7 8 1
v 0 8 1
v 1 8 1
v -8 8 -0
v -7 8 -0
v -1 8 -0
v 0 8 -0
v 1 8 -0
v 0 8 -1
v 0 8 -7
v 1 8 -7
v 0 8 -8
v 1 8 -8
v -8 9 -0
v -7 9 -0
v -1 9 -0
v 0 9 -0
v -8 9 -1
v -7 9 -1
v -2 9 -1
v -1 9 -1
v 0 9 -1
v -1 9 -2
v -1 9 -7
v 0 9 -7
v -1 9 -8
v 0 9 -8
v -8 10 -1
v -7 10 -1
v -2 10 -1
v -1 10 -1
v -8 10 -2
v -7 10 -2
v -3 10 -2
v -2 10 -2
v -1 10 -2
v -2 10 -3
v -2 10 -7
v -1 10 -7
v -2 10 -8
v -1 10 -8
v -8 11 -2
v -7 11 -2
v -3 11 -2
v -2 11 -2
v -8 11 -3
v -7 11 -3
v -4 11 -3
v -3 11 -3
v -2 11 -3
v -3 11 -4
v -3 11 -7
v -2 11 -7
v -3 11 -8
v -2 11 -8
v -8 12 -3
v -7 12 -3
v -4 12 -3
v -3 12 -3
v -8 12 -4
v -7 12 -4
v -5 12 -4
v -4 12 -4
v -3 12 -4
v -4 12 -5
v -4 12 -7
v -3 12 -7
v -4 12 -8
v -3 12 -8
v -8 13 -4
v -7 13 -4
v -5 13 -4
v -4 13 -4
v -8 13 -5
v -7 13 -5
v -6 13 -5
v -5 13 -5
v -4 13 -5
v -5 13 -6
v -5 13 -7
v -4 13 -7
v -5 13 -8
v -4 13 -8
v -8 14 -5
v -7 14 -5
v -6 14 -5
v -5 14 -5
v -8 14 -6
v -7 14 -6
v -6 14 -6
v -5 14 -6
v -6 14 -7
v -5 14 -7
v -6 14 -8
v -5 14 -8
v -8 15 -6
v -6 15 -6
v -8 15 -7
v -7 15 -7
v -7 15 -8
v -6 15 -8
v -8 16 -7
v -7 16 -7
v -8 16 -8
v -7 16 -8

# faces
f 3/3/1 2/3/1 1/3/1
f 4/3/1 2/3/1 3/3/1
f 5/3/1 2/3/1 4/3/1
f 6/3/1 2/3/1 5/3/1
f 7/3/1 5/3/1 4/3/1
f 8/2/1 6/2/1 5/2/1
f 8/3/1 5/3/1 7/3/1
f 9/2/1 6/2/1 8/2/1
f 10/3/1 9/3/1 8/3/1
f 11/2/1 6/2/1 9/2/1
f 11/3/1 9/3/1 10/3/1
f 12/2/1 6/2/1 11/2/1
f 13/3/1 12/3/1 11/3/1
f 14/2/1 6/2/1 12/2/1
f 14/3/1 12/3/1 13/3/1
f 15/2/1 6/2/1 14/2/1
f 16/3/1 15/3/1 14/3/1
f 17/2/1 6/2/1 15/2/1
f 17/3/1 15/3/1 16/3/1
f 18/2/1 6/2/1 17/2/1
f 19/3/1 18/3/1 17/3/1
f 20/2/1 6/2/1 18/2/1
f 20/3/1 18/3/1 19/3/1
f 21/2/1 6/2/1 20/2/1
f 22/3/1 21/3/1 20/3/1
f 23/2/1 6/2/1 21/2/1
f 23/3/1 21/3/1 22/3/1
f 24/2/1 6/2/1 23/2/1
f 25/3/1 24/3/1 23/3/1
f 26/2/1 6/2/1 24/2/1
f 26/3/1 24/3/1 25/3/1
f 27/2/1 6/2/1 26/2/1
f 28/3/1 27/3/1 26/3/1
f 29/2/1 6/2/1 27/2/1
f 29/3/1 27/3/1 28/3/1
f 30/2/1 6/2/1 29/2/1
f 31/3/1 30/3/1 29/3/1
f 32/2/1 6/2/1 30/2/1
f 32/3/1 30/3/1 31/3/1
f 33/2/1 6/2/1 32/2/1
f 34/3/1 33/3/1 32/3/1
f 35/2/1 6/2/1 33/2/1
f 35/3/1 33/3/1 34/3/1
f 36/2/1 6/2/1 35/2/1
f 37/3/1 36/3/1 35/3/1
f 38/2/1 6/2/1 36/2/1
f 38/3/1 36/3/1 37/3/1
f 39/2/1 6/2/1 38/2/1
f 40/3/1 39/3/1 38/3/1
f 41/2/1 6/2/1 39/2/1
f 41/3/1 39/3/1 40/3/1
f 42/2/1 6/2/1 41/2/1
f 43/3/1 42/3/1 41/3/1
f 44/2/1 6/2/1 42/2/1
f 44/3/1 42/3/1 43/3/1
f 45/3/1 2/3/1 6/3/1
f 45/2/1 6/2/1 44/2/1
f 46/3/1 45/3/1 44/3/1
f 47/3/1 2/3/1 45/3/1
f 47/3/1 45/3/1 46/3/1
f 48/3/1 2/3/1 47/3/1
f 49/3/1 2/3/1 48/3/1
f 50/3/2 51/3/2 52/3/2
f 52/3/2 51/3/2 53/3/2
f 54/3/2 55/3/2 57/3/2
f 55/3/2 56/3/2 57/3/2
f 57/3/2 56/3/2 58/3/2
f 59/3/2 60/3/2 63/3/2
f 60/1/2 61/1/2 64/1/2
f 63/3/2 60/3/2 64/3/2
f 61/3/2 62/3/2 65/3/2
f 64/1/2 61/1/2 65/1/2
f 65/3/2 62/3/2 66/3/2
f 67/3/2 68/3/2 71/3/2
f 68/1/2 69/1/2 72/1/2
f 71/3/2 68/3/2 72/3/2
f 69/3/2 70/3/2 73/3/2
f 72/1/2 69/1/2 73/1/2
f 73/3/2 70/3/2 74/3/2
f 75/3/2 76/3/2 79/3/2
f 76/1/2 77/1/2 80/1/2
f 79/3/2 76/3/2 80/3/2
f 77/3/2 78/3/2 81/3/2
f 80/1/2 77/1/2 81/1/2
f 81/3/2 78/3/2 82/3/2
f 83/3/2 84/3/2 87/3/2
f 84/1/2 85/1/2 88/1/2
f 87/3/2 84/3/2 88/3/2
f 85/3/2 86/3/2 89/3/2
f 88/1/2 85/1/2 89/1/2
f 89/3/2 86/3/2 90/3/2
f 91/3/2 92/3/2 95/3/2
f 92/1/2 93/1/2 96/1/2
f 95/3/2 92/3/2 96/3/2
f 93/3/2 94/3/2 97/3/2
f 96/1/2 93/1/2 97/1/2
f 97/3/2 94/3/2 98/3/2
f 99/3/2 100/3/2 103/3/2
f 100/1/2 101/1/2 104/1/2
f 103/3/2 100/3/2 104/3/2
f 101/3/2 102/3/2 105/3/2
f 104/1/2 101/1/2 105/1/2
f 105/3/2 102/3/2 106/3/2
f 107/3/2 108/3/2 111/3/2
f 108/1/2 109/1/2 112/1/2
f 111/3/2 108/3/2 112/3/2
f 109/3/2 110/3/2 113/3/2
f 112/1/2 109/1/2 113/1/2
f 113/3/2 110/3/2 114/3/2
f 115/3/2 116/3/2 119/3/2
f 116/1/2 117/1/2 120/1/2
f 119/3/2 116/3/2 120/3/2
f 117/3/2 118/3/2 121/3/2
f 120/1/2 117/1/2 121/1/2
f 121/3/2 118/3/2 122/3/2
f 123/3/2 124/3/2 127/3/2
f 124/1/2 125/1/2 128/1/2
f 127/3/2 124/3/2 128/3/2
f 125/3/2 126/3/2 129/3/2
f 128/1/2 125/1/2 129/1/2
f 129/3/2 126/3/2 130/3/2
f 131/3/2 132/3/2 135/3/2
f 132/1/2 133/1/2 136/1/2
f 135/3/2 132/3/2 136/3/2
f 133/3/2 134/3/2 137/3/2
f 136/1/2 133/1/2 137/1/2
f 137/3/2 134/3/2 138/3/2
f 139/3/2 140/3/2 143/3/2
f 140/1/2 141/1/2 144/1/2
f 143/3/2 140/3/2 144/3/2
f 141/3/2 142/3/2 145/3/2
f 144/1/2 141/1/2 145/1/2
f 145/3/2 142/3/2 146/3/2
f 147/3/2 148/3/2 151/3/2
f 148/1/2 149/1/2 152/1/2
f 151/3/2 148/3/2 152/3/2
f 149/3/2 150/3/2 153/3/2
f 152/1/2 149/1/2 153/1/2
f 153/3/2 150/3/2 154/3/2
f 155/3/2 156/3/2 159/3/2
f 156/1/2 157/1/2 160/1/2
f 159/3/2 156/3/2 160/3/2
f 157/3/2 158/3/2 161/3/2
f 160/1/2 157/1/2 161/1/2
f 161/3/2 158/3/2 162/3/2
f 163/3/2 164/3/2 165/3/2
f 165/3/2 164/3/2 166/3/2
f 169/3/3 168/3/3 167/3/3
f 170/3/3 168/3/3 169/3/3
f 173/3/3 172/3/3 171/3/3
f 174/3/3 172/3/3 173/3/3
f 175/2/3 174/2/3 173/2/3
f 176/2/3 174/2/3 175/2/3
f 177/3/3 176/3/3 175/3/3
f 178/3/3 176/3/3 177/3/3
f 181/3/3 180/3/3 179/3/3
f 182/3/3 180/3/3 181/3/3
f 183/2/3 182/2/3 181/2/3
f 184/2/3 182/2/3 183/2/3
f 185/3/3 184/3/3 183/3/3
f 186/3/3 184/3/3 185/3/3
f 189/3/3 188/3/3 187/3/3
f 190/3/3 188/3/3 189/3/3
f 191/2/3 190/2/3 189/2/3
f 192/2/3 190/2/3 191/2/3
f 193/3/3 192/3/3 191/3/3
f 194/3/3 192/3/3 193/3/3
f 197/3/3 196/3/3 195/3/3
f 198/3/3 196/3/3 197/3/3
f 199/2/3 198/2/3 197/2/3
f 200/2/3 198/2/3 199/2/3
f 201/3/3 200/3/3 199/3/3
f 202/3/3 200/3/3 201/3/3
f 205/3/3 204/3/3 203/3/3
f 206/3/3 204/3/3 205/3/3
f 207/2/3 206/2/3 205/2/3
f 208/2/3 206/2/3 207/2/3
f 209/3/3 208/3/3 207/3/3
f 210/3/3 208/3/3 209/3/3
f 213/3/3 212/3/3 211/3/3
f 214/3/3 212/3/3 213/3/3
f 215/2/3 214/2/3 213/2/3
f 216/2/3 214/2/3 215/2/3
f 217/3/3 216/3/3 215/3/3
f 218/3/3 216/3/3 217/3/3
f 221/3/3 220/3/3 219/3/3
f 222/3/3 220/3/3 221/3/3
f 223/2/3 222/2/3 221/2/3
f 224/2/3 222/2/3 223/2/3
f 225/3/3 224/3/3 223/3/3
f 226/3/3 224/3/3 225/3/3
f 229/3/3 228/3/3 227/3/3
f 230/3/3 228/3/3 229/3/3
f 231/2/3 230/2/3 229/2/3
f 232/2/3 230/2/3 231/2/3
f 233/3/3 232/3/3 231/3/3
f 234/3/3 232/3/3 233/3/3
f 237/3/3 236/3/3 235/3/3
f 238/3/3 236/3/3 237/3/3
f 239/2/3 238/2/3 237/2/3
f 240/2/3 238/2/3 239/2/3
f 241/3/3 240/3/3 239/3/3
f 242/3/3 240/3/3 241/3/3
f 245/3/3 244/3/3 243/3/3
f 246/3/3 244/3/3 245/3/3
f 247/2/3 246/2/3 245/2/3
f 248/2/3 246/2/3 247/2/3
f 249/3/3 248/3/3 247/3/3
f 250/3/3 248/3/3 249/3/3
f 253/3/3 252/3/3 251/3/3
f 254/3/3 252/3/3 253/3/3
f 255/2/3 254/2/3 253/2/3
f 256/2/3 254/2/3 255/2/3
f 257/3/3 256/3/3 255/3/3
f 258/3/3 256/3/3 257/3/3
f 261/3/3 260/3/3 259/3/3
f 262/3/3 260/3/3 261/3/3
f 263/2/3 262/2/3 261/2/3
f 264/2/3 262/2/3 263/2/3
f 265/3/3 264/3/3 263/3/3
f 266/3/3 264/3/3 265/3/3
f 269/3/3 268/3/3 267/3/3
f 270/3/3 268/3/3 269/3/3
f 271/2/3 270/2/3 269/2/3
f 272/2/3 270/2/3 271/2/3
f 273/3/3 272/3/3 271/3/3
f 274/3/3 272/3/3 273/3/3
f 277/3/3 276/3/3 275/3/3
f 278/3/3 276/3/3 277/3/3
f 279/3/3 276/3/3 278/3/3
f 282/3/3 281/3/3 280/3/3
f 283/3/3 281/3/3 282/3/3
f 284/3/4 285/3/4 286/3/4
f 286/3/4 285/3/4 287/3/4
f 287/3/4 285/3/4 288/3/4
f 288/3/4 285/3/4 289/3/4
f 286/1/4 287/1/4 290/1/4
f 287/3/4 288/3/4 291/3/4
f 290/1/4 287/1/4 291/1/4
f 291/3/4 288/3/4 292/3/4
f 286/1/4 290/1/4 293/1/4
f 290/3/4 291/3/4 294/3/4
f 293/1/4 290/1/4 294/1/4
f 294/3/4 291/3/4 295/3/4
f 286/1/4 293/1/4 296/1/4
f 293/3/4 294/3/4 297/3/4
f 296/1/4 293/1/4 297/1/4
f 297/3/4 294/3/4 298/3/4
f 286/1/4 296/1/4 299/1/4
f 296/3/4 297/3/4 300/3/4
f 299/1/4 296/1/4 300/1/4
f 300/3/4 297/3/4 301/3/4
f 286/1/4 299/1/4 302/1/4
f 299/3/4 300/3/4 303/3/4
f 302/1/4 299/1/4 303/1/4
f 303/3/4 300/3/4 304/3/4
f 286/1/4 302/1/4 305/1/4
f 302/3/4 303/3/4 306/3/4
f 305/1/4 302/1/4 306/1/4
f 306/3/4 303/3/4 307/3/4
f 286/1/4 305/1/4 308/1/4
f 305/3/4 306/3/4 309/3/4
f 308/1/4 305/1/4 309/1/4
f 309/3/4 306/3/4 310/3/4
f 286/1/4 308/1/4 311/1/4
f 308/3/4 309/3/4 312/3/4
f 311/1/4 308/1/4 312/1/4
f 312/3/4 309/3/4 313/3/4
f 286/1/4 311/1/4 314/1/4
f 311/3/4 312/3/4 315/3/4
f 314/1/4 311/1/4 315/1/4
f 315/3/4 312/3/4 316/3/4
f 286/1/4 314/1/4 317/1/4
f 314/3/4 315/3/4 318/3/4
f 317/1/4 314/1/4 318/1/4
f 318/3/4 315/3/4 319/3/4
f 286/1/4 317/1/4 320/1/4
f 317/3/4 318/3/4 321/3/4
f 320/1/4 317/1/4 321/1/4
f 321/3/4 318/3/4 322/3/4
f 286/1/4 320/1/4 323/1/4
f 320/3/4 321/3/4 324/3/4
f 323/1/4 320/1/4 324/1/4
f 324/3/4 321/3/4 325/3/4
f 284/3/4 286/3/4 326/3/4
f 286/1/4 323/1/4 326/1/4
f 323/3/4 324/3/4 327/3/4
f 326/1/4 323/1/4 327/1/4
f 327/3/4 324/3/4 328/3/4
f 284/3/4 326/3/4 329/3/4
f 326/3/4 327/3/4 329/3/4
f 329/3/4 327/3/4 330/3/4
f 284/3/4 329/3/4 331/3/4
f 331/3/4 329/3/4 332/3/4
f 335/3/5 334/3/5 333/3/5
f 336/3/5 334/3/5 335/3/5
f 337/2/5 336/2/5 335/2/5
f 338/3/5 334/3/5 336/3/5
f 338/2/5 336/2/5 337/2/5
f 339/3/5 334/3/5 338/3/5
f 340/2/5 337/2/5 335/2/5
f 341/3/5 338/3/5 337/3/5
f 341/2/5 337/2/5 340/2/5
f 342/1/5 339/1/5 338/1/5
f 342/3/5 338/3/5 341/3/5
f 343/2/5 340/2/5 335/2/5
f 344/3/5 341/3/5 340/3/5
f 344/2/5 340/2/5 343/2/5
f 345/1/5 342/1/5 341/1/5
f 345/3/5 341/3/5 344/3/5
f 346/2/5 343/2/5 335/2/5
f 347/3/5 344/3/5 343/3/5
f 347/2/5 343/2/5 346/2/5
f 348/1/5 345/1/5 344/1/5
f 348/3/5 344/3/5 347/3/5
f 349/2/5 346/2/5 335/2/5
f 350/3/5 347/3/5 346/3/5
f 350/2/5 346/2/5 349/2/5
f 351/1/5 348/1/5 347/1/5
f 351/3/5 347/3/5 350/3/5
f 352/2/5 349/2/5 335/2/5
f 353/3/5 350/3/5 349/3/5
f 353/2/5 349/2/5 352/2/5
f 354/1/5 351/1/5 350/1/5
f 354/3/5 350/3/5 353/3/5
f 355/2/5 352/2/5 335/2/5
f 356/3/5 353/3/5 352/3/5
f 356/2/5 352/2/5 355/2/5
f 357/1/5 354/1/5 353/1/5
f 357/3/5 353/3/5 356/3/5
f 358/2/5 355/2/5 335/2/5
f 359/3/5 356/3/5 355/3/5
f 359/2/5 355/2/5 358/2/5
f 360/1/5 357/1/5 356/1/5
f 360/3/5 356/3/5 359/3/5
f 361/2/5 358/2/5 335/2/5
f 362/3/5 359/3/5 358/3/5
f 362/2/5 358/2/5 361/2/5
f 363/1/5 360/1/5 359/1/5
f 363/3/5 359/3/5 362/3/5
f 364/2/5 361/2/5 335/2/5
f 365/3/5 362/3/5 361/3/5
f 365/2/5 361/2/5 364/2/5
f 366/1/5 363/1/5 362/1/5
f 366/3/5 362/3/5 365/3/5
f 367/2/5 364/2/5 335/2/5
f 368/3/5 365/3/5 364/3/5
f 368/2/5 364/2/5 367/2/5
f 369/1/5 366/1/5 365/1/5
f 369/3/5 365/3/5 368/3/5
f 370/2/5 367/2/5 335/2/5
f 371/3/5 368/3/5 367/3/5
f 371/2/5 367/2/5 370/2/5
f 372/1/5 369/1/5 368/1/5
f 372/3/5 368/3/5 371/3/5
f 373/3/5 335/3/5 333/3/5
f 373/2/5 370/2/5 335/2/5
f 374/3/5 371/3/5 370/3/5
f 374/2/5 370/2/5 373/2/5
f 375/1/5 372/1/5 371/1/5
f 375/3/5 371/3/5 374/3/5
f 376/3/5 374/3/5 373/3/5
f 376/1/5 375/1/5 374/1/5
f 377/1/5 369/1/5 372/1/5
f 377/1/5 375/1/5 376/1/5
f 377/3/5 334/3/5 339/3/5
f 377/1/5 339/1/5 342/1/5
f 377/1/5 372/1/5 375/1/5
f 377/1/5 366/1/5 369/1/5
f 377/1/5 363/1/5 366/1/5
f 377/1/5 360/1/5 363/1/5
f 377/1/5 357/1/5 360/1/5
f 377/1/5 354/1/5 357/1/5
f 377/1/5 351/1/5 354/1/5
f 377/1/5 348/1/5 351/1/5
f 377/1/5 345/1/5 348/1/5
f 377/1/5 342/1/5 345/1/5
f 378/3/5 376/3/5 373/3/5
f 378/3/5 373/3/5 333/3/5
f 378/3/5 377/3/5 376/3/5
f 379/3/5 334/3/5 377/3/5
f 379/3/5 377/3/5 378/3/5
f 380/3/6 381/3/6 382/3/6
f 382/3/6 381/3/6 383/3/6
f 383/3/6 381/3/6 384/3/6
f 384/3/6 381/3/6 385/3/6
f 385/3/6 381/3/6 386/3/6
f 386/3/6 381/3/6 387/3/6
f 387/3/6 381/3/6 388/3/6
f 388/3/6 381/3/6 389/3/6
f 390/3/6 391/3/6 394/3/6
f 391/2/6 392/2/6 395/2/6
f 394/3/6 391/3/6 395/3/6
f 395/2/6 392/2/6 396/2/6
f 392/3/6 393/3/6 397/3/6
f 396/2/6 392/2/6 397/2/6
f 397/3/6 393/3/6 398/3/6
f 397/1/6 398/1/6 399/1/6
f 399/1/6 398/1/6 400/1/6
f 400/1/6 398/1/6 401/1/6
f 400/3/6 401/3/6 402/3/6
f 402/3/6 401/3/6 403/3/6
f 404/3/6 405/3/6 408/3/6
f 405/2/6 406/2/6 409/2/6
f 408/3/6 405/3/6 409/3/6
f 409/2/6 406/2/6 410/2/6
f 406/3/6 407/3/6 411/3/6
f 410/2/6 406/2/6 411/2/6
f 411/3/6 407/3/6 412/3/6
f 411/1/6 412/1/6 413/1/6
f 413/1/6 412/1/6 414/1/6
f 414/1/6 412/1/6 415/1/6
f 414/3/6 415/3/6 416/3/6
f 416/3/6 415/3/6 417/3/6
f 418/3/6 419/3/6 422/3/6
f 419/2/6 420/2/6 423/2/6
f 422/3/6 419/3/6 423/3/6
f 423/2/6 420/2/6 424/2/6
f 420/3/6 421/3/6 425/3/6
f 424/2/6 420/2/6 425/2/6
f 425/3/6 421/3/6 426/3/6
f 425/1/6 426/1/6 427/1/6
f 427/1/6 426/1/6 428/1/6
f 428/1/6 426/1/6 429/1/6
f 428/3/6 429/3/6 430/3/6
f 430/3/6 429/3/6 431/3/6
f 432/3/6 433/3/6 436/3/6
f 433/2/6 434/2/6 437/2/6
f 436/3/6 433/3/6 437/3/6
f 437/2/6 434/2/6 438/2/6
f 434/3/6 435/3/6 439/3/6
f 438/2/6 434/2/6 439/2/6
f 439/3/6 435/3/6 440/3/6
f 439/1/6 440/1/6 441/1/6
f 441/1/6 440/1/6 442/1/6
f 442/1/6 440/1/6 443/1/6
f 442/3/6 443/3/6 444/3/6
f 444/3/6 443/3/6 445/3/6
f 446/3/6 447/3/6 450/3/6
f 447/2/6 448/2/6 451/2/6
f 450/3/6 447/3/6 451/3/6
f 451/2/6 448/2/6 452/2/6
f 448/3/6 449/3/6 453/3/6
f 452/2/6 448/2/6 453/2/6
f 453/3/6 449/3/6 454/3/6
f 453/1/6 454/1/6 455/1/6
f 455/1/6 454/1/6 456/1/6
f 456/1/6 454/1/6 457/1/6
f 456/3/6 457/3/6 458/3/6
f 458/3/6 457/3/6 459/3/6
f 460/3/6 461/3/6 464/3/6
f 461/2/6 462/2/6 465/2/6
f 464/3/6 461/3/6 465/3/6
f 465/2/6 462/2/6 466/2/6
f 462/3/6 463/3/6 467/3/6
f 466/2/6 462/2/6 467/2/6
f 467/3/6 463/3/6 468/3/6
f 467/1/6 468/1/6 469/1/6
f 469/1/6 468/1/6 470/1/6
f 470/1/6 468/1/6 471/1/6
f 470/3/6 471/3/6 472/3/6
f 472/3/6 471/3/6 473/3/6
f 474/3/6 475/3/6 478/3/6
f 475/2/6 476/2/6 479/2/6
f 478/3/6 475/3/6 479/3/6
f 479/2/6 476/2/6 480/2/6
f 476/3/6 477/3/6 481/3/6
f 480/2/6 476/2/6 481/2/6
f 481/3/6 477/3/6 482/3/6
f 481/1/6 482/1/6 483/1/6
f 483/1/6 482/1/6 484/1/6
f 484/1/6 482/1/6 485/1/6
f 484/3/6 485/3/6 486/3/6
f 486/3/6 485/3/6 487/3/6
f 488/3/6 489/3/6 492/3/6
f 489/2/6 490/2/6 493/2/6
f 492/3/6 489/3/6 493/3/6
f 493/2/6 490/2/6 494/2/6
f 490/3/6 491/3/6 495/3/6
f 494/2/6 490/2/6 495/2/6
f 495/3/6 491/3/6 496/3/6
f 495/1/6 496/1/6 497/1/6
f 497/1/6 496/1/6 498/1/6
f 498/1/6 496/1/6 499/1/6
f 498/3/6 499/3/6 500/3/6
f 500/3/6 499/3/6 501/3/6
f 502/3/6 503/3/6 506/3/6
f 503/2/6 504/2/6 507/2/6
f 506/3/6 503/3/6 507/3/6
f 507/2/6 504/2/6 508/2/6
f 504/3/6 505/3/6 509/3/6
f 508/2/6 504/2/6 509/2/6
f 509/3/6 505/3/6 510/3/6
f 509/1/6 510/1/6 511/1/6
f 511/1/6 510/1/6 512/1/6
f 512/1/6 510/1/6 513/1/6
f 512/3/6 513/3/6 514/3/6
f 514/3/6 513/3/6 515/3/6
f 516/3/6 517/3/6 520/3/6
f 517/2/6 518/2/6 521/2/6
f 520/3/6 517/3/6 521/3/6
f 521/2/6 518/2/6 522/2/6
f 518/3/6 519/3/6 523/3/6
f 522/2/6 518/2/6 523/2/6
f 523/3/6 519/3/6 524/3/6
f 523/1/6 524/1/6 525/1/6
f 525/1/6 524/1/6 526/1/6
f 526/1/6 524/1/6 527/1/6
f 526/3/6 527/3/6 528/3/6
f 528/3/6 527/3/6 529/3/6
f 530/3/6 531/3/6 534/3/6
f 531/2/6 532/2/6 535/2/6
f 534/3/6 531/3/6 535/3/6
f 535/2/6 532/2/6 536/2/6
f 532/3/6 533/3/6 537/3/6
f 536/2/6 532/2/6 537/2/6
f 537/3/6 533/3/6 538/3/6
f 537/1/6 538/1/6 539/1/6
f 539/1/6 538/1/6 540/1/6
f 540/1/6 538/1/6 541/1/6
f 540/3/6 541/3/6 542/3/6
f 542/3/6 541/3/6 543/3/6
f 544/3/6 545/3/6 548/3/6
f 545/2/6 546/2/6 549/2/6
f 548/3/6 545/3/6 549/3/6
f 549/2/6 546/2/6 550/2/6
f 546/3/6 547/3/6 551/3/6
f 550/2/6 546/2/6 551/2/6
f 551/3/6 547/3/6 552/3/6
f 551/1/6 552/1/6 553/1/6
f 553/1/6 552/1/6 554/1/6
f 554/1/6 552/1/6 555/1/6
f 554/3/6 555/3/6 556/3/6
f 556/3/6 555/3/6 557/3/6
f 558/3/6 559/3/6 562/3/6
f 559/2/6 560/2/6 563/2/6
f 562/3/6 559/3/6 563/3/6
f 560/3/6 561/3/6 564/3/6
f 563/2/6 560/2/6 564/2/6
f 564/3/6 561/3/6 565/3/6
f 564/1/6 565/1/6 566/1/6
f 566/1/6 565/1/6 567/1/6
f 566/3/6 567/3/6 568/3/6
f 568/3/6 567/3/6 569/3/6
f 570/3/6 571/3/6 572/3/6
f 572/3/6 571/3/6 573/3/6
f 573/3/6 571/3/6 574/3/6
f 574/3/6 571/3/6 575/3/6
f 576/3/6 577/3/6 578/3/6
f 578/3/6 577/3/6 579/3/6
