# MagicaVoxel @ Ephtracy

# material
mtllib slope tri corner inv.mtl
usemtl palette

# normals
vn -1 0 0
vn 1 0 0
vn 0 0 1
vn 0 0 -1
vn 0 -1 0
vn 0 1 0

# texcoords
vt 0.958984 0.5
vt 0.994141 0.5

# verts
v -8 0 8
v -8 0 -8
v -8 1 7
v -8 1 -7
v -8 15 7
v -8 15 -7
v -8 16 8
v -8 16 -8
v -7 15 8
v -7 15 7
v -7 16 8
v -7 16 7
v -6 14 8
v -6 14 7
v -6 15 8
v -6 15 7
v -6 15 6
v -6 16 7
v -6 16 6
v -5 13 8
v -5 13 7
v -5 14 8
v -5 14 7
v -5 14 6
v -5 15 7
v -5 15 6
v -5 15 5
v -5 16 6
v -5 16 5
v -4 12 8
v -4 12 7
v -4 13 8
v -4 13 7
v -4 13 6
v -4 14 7
v -4 14 6
v -4 14 5
v -4 15 6
v -4 15 5
v -4 15 4
v -4 16 5
v -4 16 4
v -3 11 8
v -3 11 7
v -3 12 8
v -3 12 7
v -3 12 6
v -3 13 7
v -3 13 6
v -3 13 5
v -3 14 6
v -3 14 5
v -3 14 4
v -3 15 5
v -3 15 4
v -3 15 3
v -3 16 4
v -3 16 3
v -2 10 8
v -2 10 7
v -2 11 8
v -2 11 7
v -2 11 6
v -2 12 7
v -2 12 6
v -2 12 5
v -2 13 6
v -2 13 5
v -2 13 4
v -2 14 5
v -2 14 4
v -2 14 3
v -2 15 4
v -2 15 3
v -2 15 2
v -2 16 3
v -2 16 2
v -1 9 8
v -1 9 7
v -1 10 8
v -1 10 7
v -1 10 6
v -1 11 7
v -1 11 6
v -1 11 5
v -1 12 6
v -1 12 5
v -1 12 4
v -1 13 5
v -1 13 4
v -1 13 3
v -1 14 4
v -1 14 3
v -1 14 2
v -1 15 3
v -1 15 2
v -1 15 1
v -1 16 2
v -1 16 1
v 0 8 8
v 0 8 7
v 0 9 8
v 0 9 7
v 0 9 6
v 0 10 7
v 0 10 6
v 0 10 5
v 0 11 6
v 0 11 5
v 0 11 4
v 0 12 5
v 0 12 4
v 0 12 3
v 0 13 4
v 0 13 3
v 0 13 2
v 0 14 3
v 0 14 2
v 0 14 1
v 0 15 2
v 0 15 1
v 0 15 -0
v 0 16 1
v 0 16 -0
v 1 7 8
v 1 7 7
v 1 8 8
v 1 8 7
v 1 8 6
v 1 9 7
v 1 9 6
v 1 9 5
v 1 10 6
v 1 10 5
v 1 10 4
v 1 11 5
v 1 11 4
v 1 11 3
v 1 12 4
v 1 12 3
v 1 12 2
v 1 13 3
v 1 13 2
v 1 13 1
v 1 14 2
v 1 14 1
v 1 14 -0
v 1 15 1
v 1 15 -0
v 1 15 -1
v 1 16 -0
v 1 16 -1
v 2 6 8
v 2 6 7
v 2 7 8
v 2 7 7
v 2 7 6
v 2 8 7
v 2 8 6
v 2 8 5
v 2 9 6
v 2 9 5
v 2 9 4
v 2 10 5
v 2 10 4
v 2 10 3
v 2 11 4
v 2 11 3
v 2 11 2
v 2 12 3
v 2 12 2
v 2 12 1
v 2 13 2
v 2 13 1
v 2 13 -0
v 2 14 1
v 2 14 -0
v 2 14 -1
v 2 15 -0
v 2 15 -1
v 2 15 -2
v 2 16 -1
v 2 16 -2
v 3 5 8
v 3 5 7
v 3 6 8
v 3 6 7
v 3 6 6
v 3 7 7
v 3 7 6
v 3 7 5
v 3 8 6
v 3 8 5
v 3 8 4
v 3 9 5
v 3 9 4
v 3 9 3
v 3 10 4
v 3 10 3
v 3 10 2
v 3 11 3
v 3 11 2
v 3 11 1
v 3 12 2
v 3 12 1
v 3 12 -0
v 3 13 1
v 3 13 -0
v 3 13 -1
v 3 14 -0
v 3 14 -1
v 3 14 -2
v 3 15 -1
v 3 15 -2
v 3 15 -3
v 3 16 -2
v 3 16 -3
v 4 4 8
v 4 4 7
v 4 5 8
v 4 5 7
v 4 5 6
v 4 6 7
v 4 6 6
v 4 6 5
v 4 7 6
v 4 7 5
v 4 7 4
v 4 8 5
v 4 8 4
v 4 8 3
v 4 9 4
v 4 9 3
v 4 9 2
v 4 10 3
v 4 10 2
v 4 10 1
v 4 11 2
v 4 11 1
v 4 11 -0
v 4 12 1
v 4 12 -0
v 4 12 -1
v 4 13 -0
v 4 13 -1
v 4 13 -2
v 4 14 -1
v 4 14 -2
v 4 14 -3
v 4 15 -2
v 4 15 -3
v 4 15 -4
v 4 16 -3
v 4 16 -4
v 5 3 8
v 5 3 7
v 5 4 8
v 5 4 7
v 5 4 6
v 5 5 7
v 5 5 6
v 5 5 5
v 5 6 6
v 5 6 5
v 5 6 4
v 5 7 5
v 5 7 4
v 5 7 3
v 5 8 4
v 5 8 3
v 5 8 2
v 5 9 3
v 5 9 2
v 5 9 1
v 5 10 2
v 5 10 1
v 5 10 -0
v 5 11 1
v 5 11 -0
v 5 11 -1
v 5 12 -0
v 5 12 -1
v 5 12 -2
v 5 13 -1
v 5 13 -2
v 5 13 -3
v 5 14 -2
v 5 14 -3
v 5 14 -4
v 5 15 -3
v 5 15 -4
v 5 15 -5
v 5 16 -4
v 5 16 -5
v 6 2 8
v 6 2 7
v 6 3 8
v 6 3 7
v 6 3 6
v 6 4 7
v 6 4 6
v 6 4 5
v 6 5 6
v 6 5 5
v 6 5 4
v 6 6 5
v 6 6 4
v 6 6 3
v 6 7 4
v 6 7 3
v 6 7 2
v 6 8 3
v 6 8 2
v 6 8 1
v 6 9 2
v 6 9 1
v 6 9 -0
v 6 10 1
v 6 10 -0
v 6 10 -1
v 6 11 -0
v 6 11 -1
v 6 11 -2
v 6 12 -1
v 6 12 -2
v 6 12 -3
v 6 13 -2
v 6 13 -3
v 6 13 -4
v 6 14 -3
v 6 14 -4
v 6 14 -5
v 6 15 -4
v 6 15 -5
v 6 15 -6
v 6 16 -5
v 6 16 -6
v 7 1 8
v 7 1 7
v 7 2 8
v 7 2 7
v 7 2 6
v 7 3 7
v 7 3 6
v 7 3 5
v 7 4 6
v 7 4 5
v 7 4 4
v 7 5 5
v 7 5 4
v 7 5 3
v 7 6 4
v 7 6 3
v 7 6 2
v 7 7 3
v 7 7 2
v 7 7 1
v 7 8 2
v 7 8 1
v 7 8 -0
v 7 9 1
v 7 9 -0
v 7 9 -1
v 7 10 -0
v 7 10 -1
v 7 10 -2
v 7 11 -1
v 7 11 -2
v 7 11 -3
v 7 12 -2
v 7 12 -3
v 7 12 -4
v 7 13 -3
v 7 13 -4
v 7 13 -5
v 7 14 -4
v 7 14 -5
v 7 14 -6
v 7 15 -5
v 7 15 -6
v 7 15 -7
v 7 16 -6
v 7 16 -7
v 8 0 8
v 8 0 -8
v 8 1 8
v 8 1 7
v 8 1 6
v 8 1 -7
v 8 2 7
v 8 2 6
v 8 2 5
v 8 3 6
v 8 3 5
v 8 3 4
v 8 4 5
v 8 4 4
v 8 4 3
v 8 5 4
v 8 5 3
v 8 5 2
v 8 6 3
v 8 6 2
v 8 6 1
v 8 7 2
v 8 7 1
v 8 7 -0
v 8 8 1
v 8 8 -0
v 8 8 -1
v 8 9 -0
v 8 9 -1
v 8 9 -2
v 8 10 -1
v 8 10 -2
v 8 10 -3
v 8 11 -2
v 8 11 -3
v 8 11 -4
v 8 12 -3
v 8 12 -4
v 8 12 -5
v 8 13 -4
v 8 13 -5
v 8 13 -6
v 8 14 -5
v 8 14 -6
v 8 14 -7
v 8 15 -6
v 8 15 -7
v 8 16 -7
v 8 16 -8
v -8 0 8
v -8 16 8
v -7 1 8
v -7 14 8
v -7 15 8
v -7 16 8
v -6 13 8
v -6 14 8
v -6 15 8
v -5 12 8
v -5 13 8
v -5 14 8
v -4 11 8
v -4 12 8
v -4 13 8
v -3 10 8
v -3 11 8
v -3 12 8
v -2 9 8
v -2 10 8
v -2 11 8
v -1 8 8
v -1 9 8
v -1 10 8
v 0 7 8
v 0 8 8
v 0 9 8
v 1 6 8
v 1 7 8
v 1 8 8
v 2 5 8
v 2 6 8
v 2 7 8
v 3 4 8
v 3 5 8
v 3 6 8
v 4 3 8
v 4 4 8
v 4 5 8
v 5 2 8
v 5 3 8
v 5 4 8
v 6 1 8
v 6 2 8
v 6 3 8
v 7 1 8
v 7 2 8
v 8 0 8
v 8 1 8
v -7 15 7
v -7 16 7
v -6 14 7
v -6 15 7
v -6 16 7
v -5 13 7
v -5 14 7
v -5 15 7
v -4 12 7
v -4 13 7
v -4 14 7
v -3 11 7
v -3 12 7
v -3 13 7
v -2 10 7
v -2 11 7
v -2 12 7
v -1 9 7
v -1 10 7
v -1 11 7
v 0 8 7
v 0 9 7
v 0 10 7
v 1 7 7
v 1 8 7
v 1 9 7
v 2 6 7
v 2 7 7
v 2 8 7
v 3 5 7
v 3 6 7
v 3 7 7
v 4 4 7
v 4 5 7
v 4 6 7
v 5 3 7
v 5 4 7
v 5 5 7
v 6 2 7
v 6 3 7
v 6 4 7
v 7 1 7
v 7 2 7
v 7 3 7
v 8 1 7
v 8 2 7
v -6 15 6
v -6 16 6
v -5 14 6
v -5 15 6
v -5 16 6
v -4 13 6
v -4 14 6
v -4 15 6
v -3 12 6
v -3 13 6
v -3 14 6
v -2 11 6
v -2 12 6
v -2 13 6
v -1 10 6
v -1 11 6
v -1 12 6
v 0 9 6
v 0 10 6
v 0 11 6
v 1 8 6
v 1 9 6
v 1 10 6
v 2 7 6
v 2 8 6
v 2 9 6
v 3 6 6
v 3 7 6
v 3 8 6
v 4 5 6
v 4 6 6
v 4 7 6
v 5 4 6
v 5 5 6
v 5 6 6
v 6 3 6
v 6 4 6
v 6 5 6
v 7 2 6
v 7 3 6
v 7 4 6
v 8 2 6
v 8 3 6
v -5 15 5
v -5 16 5
v -4 14 5
v -4 15 5
v -4 16 5
v -3 13 5
v -3 14 5
v -3 15 5
v -2 12 5
v -2 13 5
v -2 14 5
v -1 11 5
v -1 12 5
v -1 13 5
v 0 10 5
v 0 11 5
v 0 12 5
v 1 9 5
v 1 10 5
v 1 11 5
v 2 8 5
v 2 9 5
v 2 10 5
v 3 7 5
v 3 8 5
v 3 9 5
v 4 6 5
v 4 7 5
v 4 8 5
v 5 5 5
v 5 6 5
v 5 7 5
v 6 4 5
v 6 5 5
v 6 6 5
v 7 3 5
v 7 4 5
v 7 5 5
v 8 3 5
v 8 4 5
v -4 15 4
v -4 16 4
v -3 14 4
v -3 15 4
v -3 16 4
v -2 13 4
v -2 14 4
v -2 15 4
v -1 12 4
v -1 13 4
v -1 14 4
v 0 11 4
v 0 12 4
v 0 13 4
v 1 10 4
v 1 11 4
v 1 12 4
v 2 9 4
v 2 10 4
v 2 11 4
v 3 8 4
v 3 9 4
v 3 10 4
v 4 7 4
v 4 8 4
v 4 9 4
v 5 6 4
v 5 7 4
v 5 8 4
v 6 5 4
v 6 6 4
v 6 7 4
v 7 4 4
v 7 5 4
v 7 6 4
v 8 4 4
v 8 5 4
v -3 15 3
v -3 16 3
v -2 14 3
v -2 15 3
v -2 16 3
v -1 13 3
v -1 14 3
v -1 15 3
v 0 12 3
v 0 13 3
v 0 14 3
v 1 11 3
v 1 12 3
v 1 13 3
v 2 10 3
v 2 11 3
v 2 12 3
v 3 9 3
v 3 10 3
v 3 11 3
v 4 8 3
v 4 9 3
v 4 10 3
v 5 7 3
v 5 8 3
v 5 9 3
v 6 6 3
v 6 7 3
v 6 8 3
v 7 5 3
v 7 6 3
v 7 7 3
v 8 5 3
v 8 6 3
v -2 15 2
v -2 16 2
v -1 14 2
v -1 15 2
v -1 16 2
v 0 13 2
v 0 14 2
v 0 15 2
v 1 12 2
v 1 13 2
v 1 14 2
v 2 11 2
v 2 12 2
v 2 13 2
v 3 10 2
v 3 11 2
v 3 12 2
v 4 9 2
v 4 10 2
v 4 11 2
v 5 8 2
v 5 9 2
v 5 10 2
v 6 7 2
v 6 8 2
v 6 9 2
v 7 6 2
v 7 7 2
v 7 8 2
v 8 6 2
v 8 7 2
v -1 15 1
v -1 16 1
v 0 14 1
v 0 15 1
v 0 16 1
v 1 13 1
v 1 14 1
v 1 15 1
v 2 12 1
v 2 13 1
v 2 14 1
v 3 11 1
v 3 12 1
v 3 13 1
v 4 10 1
v 4 11 1
v 4 12 1
v 5 9 1
v 5 10 1
v 5 11 1
v 6 8 1
v 6 9 1
v 6 10 1
v 7 7 1
v 7 8 1
v 7 9 1
v 8 7 1
v 8 8 1
v 0 15 -0
v 0 16 -0
v 1 14 -0
v 1 15 -0
v 1 16 -0
v 2 13 -0
v 2 14 -0
v 2 15 -0
v 3 12 -0
v 3 13 -0
v 3 14 -0
v 4 11 -0
v 4 12 -0
v 4 13 -0
v 5 10 -0
v 5 11 -0
v 5 12 -0
v 6 9 -0
v 6 10 -0
v 6 11 -0
v 7 8 -0
v 7 9 -0
v 7 10 -0
v 8 8 -0
v 8 9 -0
v 1 15 -1
v 1 16 -1
v 2 14 -1
v 2 15 -1
v 2 16 -1
v 3 13 -1
v 3 14 -1
v 3 15 -1
v 4 12 -1
v 4 13 -1
v 4 14 -1
v 5 11 -1
v 5 12 -1
v 5 13 -1
v 6 10 -1
v 6 11 -1
v 6 12 -1
v 7 9 -1
v 7 10 -1
v 7 11 -1
v 8 9 -1
v 8 10 -1
v 2 15 -2
v 2 16 -2
v 3 14 -2
v 3 15 -2
v 3 16 -2
v 4 13 -2
v 4 14 -2
v 4 15 -2
v 5 12 -2
v 5 13 -2
v 5 14 -2
v 6 11 -2
v 6 12 -2
v 6 13 -2
v 7 10 -2
v 7 11 -2
v 7 12 -2
v 8 10 -2
v 8 11 -2
v 3 15 -3
v 3 16 -3
v 4 14 -3
v 4 15 -3
v 4 16 -3
v 5 13 -3
v 5 14 -3
v 5 15 -3
v 6 12 -3
v 6 13 -3
v 6 14 -3
v 7 11 -3
v 7 12 -3
v 7 13 -3
v 8 11 -3
v 8 12 -3
v 4 15 -4
v 4 16 -4
v 5 14 -4
v 5 15 -4
v 5 16 -4
v 6 13 -4
v 6 14 -4
v 6 15 -4
v 7 12 -4
v 7 13 -4
v 7 14 -4
v 8 12 -4
v 8 13 -4
v 5 15 -5
v 5 16 -5
v 6 14 -5
v 6 15 -5
v 6 16 -5
v 7 13 -5
v 7 14 -5
v 7 15 -5
v 8 13 -5
v 8 14 -5
v 6 15 -6
v 6 16 -6
v 7 14 -6
v 7 15 -6
v 7 16 -6
v 8 14 -6
v 8 15 -6
v 7 15 -7
v 7 16 -7
v 8 15 -7
v 8 16 -7
v -8 0 -8
v -8 16 -8
v -7 1 -8
v -7 15 -8
v 7 1 -8
v 7 15 -8
v 8 0 -8
v 8 16 -8
v -8 0 8
v 8 0 8
v -7 0 7
v 7 0 7
v -7 0 -7
v 7 0 -7
v -8 0 -8
v 8 0 -8
v 7 1 8
v 8 1 8
v 7 1 7
v 8 1 7
v 6 2 8
v 7 2 8
v 6 2 7
v 7 2 7
v 8 2 7
v 7 2 6
v 8 2 6
v 5 3 8
v 6 3 8
v 5 3 7
v 6 3 7
v 7 3 7
v 6 3 6
v 7 3 6
v 8 3 6
v 7 3 5
v 8 3 5
v 4 4 8
v 5 4 8
v 4 4 7
v 5 4 7
v 6 4 7
v 5 4 6
v 6 4 6
v 7 4 6
v 6 4 5
v 7 4 5
v 8 4 5
v 7 4 4
v 8 4 4
v 3 5 8
v 4 5 8
v 3 5 7
v 4 5 7
v 5 5 7
v 4 5 6
v 5 5 6
v 6 5 6
v 5 5 5
v 6 5 5
v 7 5 5
v 6 5 4
v 7 5 4
v 8 5 4
v 7 5 3
v 8 5 3
v 2 6 8
v 3 6 8
v 2 6 7
v 3 6 7
v 4 6 7
v 3 6 6
v 4 6 6
v 5 6 6
v 4 6 5
v 5 6 5
v 6 6 5
v 5 6 4
v 6 6 4
v 7 6 4
v 6 6 3
v 7 6 3
v 8 6 3
v 7 6 2
v 8 6 2
v 1 7 8
v 2 7 8
v 1 7 7
v 2 7 7
v 3 7 7
v 2 7 6
v 3 7 6
v 4 7 6
v 3 7 5
v 4 7 5
v 5 7 5
v 4 7 4
v 5 7 4
v 6 7 4
v 5 7 3
v 6 7 3
v 7 7 3
v 6 7 2
v 7 7 2
v 8 7 2
v 7 7 1
v 8 7 1
v 0 8 8
v 1 8 8
v 0 8 7
v 1 8 7
v 2 8 7
v 1 8 6
v 2 8 6
v 3 8 6
v 2 8 5
v 3 8 5
v 4 8 5
v 3 8 4
v 4 8 4
v 5 8 4
v 4 8 3
v 5 8 3
v 6 8 3
v 5 8 2
v 6 8 2
v 7 8 2
v 6 8 1
v 7 8 1
v 8 8 1
v 7 8 -0
v 8 8 -0
v -1 9 8
v 0 9 8
v -1 9 7
v 0 9 7
v 1 9 7
v 0 9 6
v 1 9 6
v 2 9 6
v 1 9 5
v 2 9 5
v 3 9 5
v 2 9 4
v 3 9 4
v 4 9 4
v 3 9 3
v 4 9 3
v 5 9 3
v 4 9 2
v 5 9 2
v 6 9 2
v 5 9 1
v 6 9 1
v 7 9 1
v 6 9 -0
v 7 9 -0
v 8 9 -0
v 7 9 -1
v 8 9 -1
v -2 10 8
v -1 10 8
v -2 10 7
v -1 10 7
v 0 10 7
v -1 10 6
v 0 10 6
v 1 10 6
v 0 10 5
v 1 10 5
v 2 10 5
v 1 10 4
v 2 10 4
v 3 10 4
v 2 10 3
v 3 10 3
v 4 10 3
v 3 10 2
v 4 10 2
v 5 10 2
v 4 10 1
v 5 10 1
v 6 10 1
v 5 10 -0
v 6 10 -0
v 7 10 -0
v 6 10 -1
v 7 10 -1
v 8 10 -1
v 7 10 -2
v 8 10 -2
v -3 11 8
v -2 11 8
v -3 11 7
v -2 11 7
v -1 11 7
v -2 11 6
v -1 11 6
v 0 11 6
v -1 11 5
v 0 11 5
v 1 11 5
v 0 11 4
v 1 11 4
v 2 11 4
v 1 11 3
v 2 11 3
v 3 11 3
v 2 11 2
v 3 11 2
v 4 11 2
v 3 11 1
v 4 11 1
v 5 11 1
v 4 11 -0
v 5 11 -0
v 6 11 -0
v 5 11 -1
v 6 11 -1
v 7 11 -1
v 6 11 -2
v 7 11 -2
v 8 11 -2
v 7 11 -3
v 8 11 -3
v -4 12 8
v -3 12 8
v -4 12 7
v -3 12 7
v -2 12 7
v -3 12 6
v -2 12 6
v -1 12 6
v -2 12 5
v -1 12 5
v 0 12 5
v -1 12 4
v 0 12 4
v 1 12 4
v 0 12 3
v 1 12 3
v 2 12 3
v 1 12 2
v 2 12 2
v 3 12 2
v 2 12 1
v 3 12 1
v 4 12 1
v 3 12 -0
v 4 12 -0
v 5 12 -0
v 4 12 -1
v 5 12 -1
v 6 12 -1
v 5 12 -2
v 6 12 -2
v 7 12 -2
v 6 12 -3
v 7 12 -3
v 8 12 -3
v 7 12 -4
v 8 12 -4
v -5 13 8
v -4 13 8
v -5 13 7
v -4 13 7
v -3 13 7
v -4 13 6
v -3 13 6
v -2 13 6
v -3 13 5
v -2 13 5
v -1 13 5
v -2 13 4
v -1 13 4
v 0 13 4
v -1 13 3
v 0 13 3
v 1 13 3
v 0 13 2
v 1 13 2
v 2 13 2
v 1 13 1
v 2 13 1
v 3 13 1
v 2 13 -0
v 3 13 -0
v 4 13 -0
v 3 13 -1
v 4 13 -1
v 5 13 -1
v 4 13 -2
v 5 13 -2
v 6 13 -2
v 5 13 -3
v 6 13 -3
v 7 13 -3
v 6 13 -4
v 7 13 -4
v 8 13 -4
v 7 13 -5
v 8 13 -5
v -6 14 8
v -5 14 8
v -6 14 7
v -5 14 7
v -4 14 7
v -5 14 6
v -4 14 6
v -3 14 6
v -4 14 5
v -3 14 5
v -2 14 5
v -3 14 4
v -2 14 4
v -1 14 4
v -2 14 3
v -1 14 3
v 0 14 3
v -1 14 2
v 0 14 2
v 1 14 2
v 0 14 1
v 1 14 1
v 2 14 1
v 1 14 -0
v 2 14 -0
v 3 14 -0
v 2 14 -1
v 3 14 -1
v 4 14 -1
v 3 14 -2
v 4 14 -2
v 5 14 -2
v 4 14 -3
v 5 14 -3
v 6 14 -3
v 5 14 -4
v 6 14 -4
v 7 14 -4
v 6 14 -5
v 7 14 -5
v 8 14 -5
v 7 14 -6
v 8 14 -6
v -7 15 8
v -6 15 8
v -7 15 7
v -6 15 7
v -5 15 7
v -6 15 6
v -5 15 6
v -4 15 6
v -5 15 5
v -4 15 5
v -3 15 5
v -4 15 4
v -3 15 4
v -2 15 4
v -3 15 3
v -2 15 3
v -1 15 3
v -2 15 2
v -1 15 2
v 0 15 2
v -1 15 1
v 0 15 1
v 1 15 1
v 0 15 -0
v 1 15 -0
v 2 15 -0
v 1 15 -1
v 2 15 -1
v 3 15 -1
v 2 15 -2
v 3 15 -2
v 4 15 -2
v 3 15 -3
v 4 15 -3
v 5 15 -3
v 4 15 -4
v 5 15 -4
v 6 15 -4
v 5 15 -5
v 6 15 -5
v 7 15 -5
v 6 15 -6
v 7 15 -6
v 8 15 -6
v 7 15 -7
v 8 15 -7
v -8 16 8
v -7 16 8
v -7 16 7
v -6 16 7
v -7 16 6
v -6 16 6
v -5 16 6
v -6 16 5
v -5 16 5
v -4 16 5
v -5 16 4
v -4 16 4
v -3 16 4
v -4 16 3
v -3 16 3
v -2 16 3
v -3 16 2
v -2 16 2
v -1 16 2
v -2 16 1
v -1 16 1
v 0 16 1
v -1 16 -0
v 0 16 -0
v 1 16 -0
v 0 16 -1
v 1 16 -1
v 2 16 -1
v 1 16 -2
v 2 16 -2
v 3 16 -2
v 2 16 -3
v 3 16 -3
v 4 16 -3
v 3 16 -4
v 4 16 -4
v 5 16 -4
v 4 16 -5
v 5 16 -5
v 6 16 -5
v 5 16 -6
v 6 16 -6
v 7 16 -6
v -7 16 -7
v 6 16 -7
v 7 16 -7
v 8 16 -7
v -8 16 -8
v 8 16 -8

# faces
f 3/2/1 2/2/1 1/2/1
f 4/2/1 2/2/1 3/2/1
f 5/2/1 3/2/1 1/2/1
f 5/1/1 4/1/1 3/1/1
f 6/2/1 2/2/1 4/2/1
f 6/1/1 4/1/1 5/1/1
f 7/2/1 5/2/1 1/2/1
f 7/2/1 6/2/1 5/2/1
f 8/2/1 2/2/1 6/2/1
f 8/2/1 6/2/1 7/2/1
f 9/2/2 10/2/2 11/2/2
f 11/2/2 10/2/2 12/2/2
f 13/2/2 14/2/2 15/2/2
f 15/2/2 14/2/2 16/2/2
f 16/2/2 17/2/2 18/2/2
f 18/2/2 17/2/2 19/2/2
f 20/2/2 21/2/2 22/2/2
f 22/2/2 21/2/2 23/2/2
f 23/1/2 24/1/2 25/1/2
f 25/1/2 24/1/2 26/1/2
f 26/2/2 27/2/2 28/2/2
f 28/2/2 27/2/2 29/2/2
f 30/2/2 31/2/2 32/2/2
f 32/2/2 31/2/2 33/2/2
f 33/1/2 34/1/2 35/1/2
f 35/1/2 34/1/2 36/1/2
f 36/1/2 37/1/2 38/1/2
f 38/1/2 37/1/2 39/1/2
f 39/2/2 40/2/2 41/2/2
f 41/2/2 40/2/2 42/2/2
f 43/2/2 44/2/2 45/2/2
f 45/2/2 44/2/2 46/2/2
f 46/1/2 47/1/2 48/1/2
f 48/1/2 47/1/2 49/1/2
f 49/1/2 50/1/2 51/1/2
f 51/1/2 50/1/2 52/1/2
f 52/1/2 53/1/2 54/1/2
f 54/1/2 53/1/2 55/1/2
f 55/2/2 56/2/2 57/2/2
f 57/2/2 56/2/2 58/2/2
f 59/2/2 60/2/2 61/2/2
f 61/2/2 60/2/2 62/2/2
f 62/1/2 63/1/2 64/1/2
f 64/1/2 63/1/2 65/1/2
f 65/1/2 66/1/2 67/1/2
f 67/1/2 66/1/2 68/1/2
f 68/1/2 69/1/2 70/1/2
f 70/1/2 69/1/2 71/1/2
f 71/1/2 72/1/2 73/1/2
f 73/1/2 72/1/2 74/1/2
f 74/2/2 75/2/2 76/2/2
f 76/2/2 75/2/2 77/2/2
f 78/2/2 79/2/2 80/2/2
f 80/2/2 79/2/2 81/2/2
f 81/1/2 82/1/2 83/1/2
f 83/1/2 82/1/2 84/1/2
f 84/1/2 85/1/2 86/1/2
f 86/1/2 85/1/2 87/1/2
f 87/1/2 88/1/2 89/1/2
f 89/1/2 88/1/2 90/1/2
f 90/1/2 91/1/2 92/1/2
f 92/1/2 91/1/2 93/1/2
f 93/1/2 94/1/2 95/1/2
f 95/1/2 94/1/2 96/1/2
f 96/2/2 97/2/2 98/2/2
f 98/2/2 97/2/2 99/2/2
f 100/2/2 101/2/2 102/2/2
f 102/2/2 101/2/2 103/2/2
f 103/1/2 104/1/2 105/1/2
f 105/1/2 104/1/2 106/1/2
f 106/1/2 107/1/2 108/1/2
f 108/1/2 107/1/2 109/1/2
f 109/1/2 110/1/2 111/1/2
f 111/1/2 110/1/2 112/1/2
f 112/1/2 113/1/2 114/1/2
f 114/1/2 113/1/2 115/1/2
f 115/1/2 116/1/2 117/1/2
f 117/1/2 116/1/2 118/1/2
f 118/1/2 119/1/2 120/1/2
f 120/1/2 119/1/2 121/1/2
f 121/2/2 122/2/2 123/2/2
f 123/2/2 122/2/2 124/2/2
f 125/2/2 126/2/2 127/2/2
f 127/2/2 126/2/2 128/2/2
f 128/1/2 129/1/2 130/1/2
f 130/1/2 129/1/2 131/1/2
f 131/1/2 132/1/2 133/1/2
f 133/1/2 132/1/2 134/1/2
f 134/1/2 135/1/2 136/1/2
f 136/1/2 135/1/2 137/1/2
f 137/1/2 138/1/2 139/1/2
f 139/1/2 138/1/2 140/1/2
f 140/1/2 141/1/2 142/1/2
f 142/1/2 141/1/2 143/1/2
f 143/1/2 144/1/2 145/1/2
f 145/1/2 144/1/2 146/1/2
f 146/1/2 147/1/2 148/1/2
f 148/1/2 147/1/2 149/1/2
f 149/2/2 150/2/2 151/2/2
f 151/2/2 150/2/2 152/2/2
f 153/2/2 154/2/2 155/2/2
f 155/2/2 154/2/2 156/2/2
f 156/1/2 157/1/2 158/1/2
f 158/1/2 157/1/2 159/1/2
f 159/1/2 160/1/2 161/1/2
f 161/1/2 160/1/2 162/1/2
f 162/1/2 163/1/2 164/1/2
f 164/1/2 163/1/2 165/1/2
f 165/1/2 166/1/2 167/1/2
f 167/1/2 166/1/2 168/1/2
f 168/1/2 169/1/2 170/1/2
f 170/1/2 169/1/2 171/1/2
f 171/1/2 172/1/2 173/1/2
f 173/1/2 172/1/2 174/1/2
f 174/1/2 175/1/2 176/1/2
f 176/1/2 175/1/2 177/1/2
f 177/1/2 178/1/2 179/1/2
f 179/1/2 178/1/2 180/1/2
f 180/2/2 181/2/2 182/2/2
f 182/2/2 181/2/2 183/2/2
f 184/2/2 185/2/2 186/2/2
f 186/2/2 185/2/2 187/2/2
f 187/1/2 188/1/2 189/1/2
f 189/1/2 188/1/2 190/1/2
f 190/1/2 191/1/2 192/1/2
f 192/1/2 191/1/2 193/1/2
f 193/1/2 194/1/2 195/1/2
f 195/1/2 194/1/2 196/1/2
f 196/1/2 197/1/2 198/1/2
f 198/1/2 197/1/2 199/1/2
f 199/1/2 200/1/2 201/1/2
f 201/1/2 200/1/2 202/1/2
f 202/1/2 203/1/2 204/1/2
f 204/1/2 203/1/2 205/1/2
f 205/1/2 206/1/2 207/1/2
f 207/1/2 206/1/2 208/1/2
f 208/1/2 209/1/2 210/1/2
f 210/1/2 209/1/2 211/1/2
f 211/1/2 212/1/2 213/1/2
f 213/1/2 212/1/2 214/1/2
f 214/2/2 215/2/2 216/2/2
f 216/2/2 215/2/2 217/2/2
f 218/2/2 219/2/2 220/2/2
f 220/2/2 219/2/2 221/2/2
f 221/1/2 222/1/2 223/1/2
f 223/1/2 222/1/2 224/1/2
f 224/1/2 225/1/2 226/1/2
f 226/1/2 225/1/2 227/1/2
f 227/1/2 228/1/2 229/1/2
f 229/1/2 228/1/2 230/1/2
f 230/1/2 231/1/2 232/1/2
f 232/1/2 231/1/2 233/1/2
f 233/1/2 234/1/2 235/1/2
f 235/1/2 234/1/2 236/1/2
f 236/1/2 237/1/2 238/1/2
f 238/1/2 237/1/2 239/1/2
f 239/1/2 240/1/2 241/1/2
f 241/1/2 240/1/2 242/1/2
f 242/1/2 243/1/2 244/1/2
f 244/1/2 243/1/2 245/1/2
f 245/1/2 246/1/2 247/1/2
f 247/1/2 246/1/2 248/1/2
f 248/1/2 249/1/2 250/1/2
f 250/1/2 249/1/2 251/1/2
f 251/2/2 252/2/2 253/2/2
f 253/2/2 252/2/2 254/2/2
f 255/2/2 256/2/2 257/2/2
f 257/2/2 256/2/2 258/2/2
f 258/1/2 259/1/2 260/1/2
f 260/1/2 259/1/2 261/1/2
f 261/1/2 262/1/2 263/1/2
f 263/1/2 262/1/2 264/1/2
f 264/1/2 265/1/2 266/1/2
f 266/1/2 265/1/2 267/1/2
f 267/1/2 268/1/2 269/1/2
f 269/1/2 268/1/2 270/1/2
f 270/1/2 271/1/2 272/1/2
f 272/1/2 271/1/2 273/1/2
f 273/1/2 274/1/2 275/1/2
f 275/1/2 274/1/2 276/1/2
f 276/1/2 277/1/2 278/1/2
f 278/1/2 277/1/2 279/1/2
f 279/1/2 280/1/2 281/1/2
f 281/1/2 280/1/2 282/1/2
f 282/1/2 283/1/2 284/1/2
f 284/1/2 283/1/2 285/1/2
f 285/1/2 286/1/2 287/1/2
f 287/1/2 286/1/2 288/1/2
f 288/1/2 289/1/2 290/1/2
f 290/1/2 289/1/2 291/1/2
f 291/2/2 292/2/2 293/2/2
f 293/2/2 292/2/2 294/2/2
f 295/2/2 296/2/2 297/2/2
f 297/2/2 296/2/2 298/2/2
f 298/1/2 299/1/2 300/1/2
f 300/1/2 299/1/2 301/1/2
f 301/1/2 302/1/2 303/1/2
f 303/1/2 302/1/2 304/1/2
f 304/1/2 305/1/2 306/1/2
f 306/1/2 305/1/2 307/1/2
f 307/1/2 308/1/2 309/1/2
f 309/1/2 308/1/2 310/1/2
f 310/1/2 311/1/2 312/1/2
f 312/1/2 311/1/2 313/1/2
f 313/1/2 314/1/2 315/1/2
f 315/1/2 314/1/2 316/1/2
f 316/1/2 317/1/2 318/1/2
f 318/1/2 317/1/2 319/1/2
f 319/1/2 320/1/2 321/1/2
f 321/1/2 320/1/2 322/1/2
f 322/1/2 323/1/2 324/1/2
f 324/1/2 323/1/2 325/1/2
f 325/1/2 326/1/2 327/1/2
f 327/1/2 326/1/2 328/1/2
f 328/1/2 329/1/2 330/1/2
f 330/1/2 329/1/2 331/1/2
f 331/1/2 332/1/2 333/1/2
f 333/1/2 332/1/2 334/1/2
f 334/2/2 335/2/2 336/2/2
f 336/2/2 335/2/2 337/2/2
f 338/2/2 339/2/2 340/2/2
f 340/2/2 339/2/2 341/2/2
f 341/1/2 342/1/2 343/1/2
f 343/1/2 342/1/2 344/1/2
f 344/1/2 345/1/2 346/1/2
f 346/1/2 345/1/2 347/1/2
f 347/1/2 348/1/2 349/1/2
f 349/1/2 348/1/2 350/1/2
f 350/1/2 351/1/2 352/1/2
f 352/1/2 351/1/2 353/1/2
f 353/1/2 354/1/2 355/1/2
f 355/1/2 354/1/2 356/1/2
f 356/1/2 357/1/2 358/1/2
f 358/1/2 357/1/2 359/1/2
f 359/1/2 360/1/2 361/1/2
f 361/1/2 360/1/2 362/1/2
f 362/1/2 363/1/2 364/1/2
f 364/1/2 363/1/2 365/1/2
f 365/1/2 366/1/2 367/1/2
f 367/1/2 366/1/2 368/1/2
f 368/1/2 369/1/2 370/1/2
f 370/1/2 369/1/2 371/1/2
f 371/1/2 372/1/2 373/1/2
f 373/1/2 372/1/2 374/1/2
f 374/1/2 375/1/2 376/1/2
f 376/1/2 375/1/2 377/1/2
f 377/1/2 378/1/2 379/1/2
f 379/1/2 378/1/2 380/1/2
f 380/2/2 381/2/2 382/2/2
f 382/2/2 381/2/2 383/2/2
f 384/2/2 385/2/2 386/2/2
f 386/2/2 385/2/2 387/2/2
f 387/2/2 385/2/2 388/2/2
f 388/2/2 385/2/2 389/2/2
f 387/2/2 388/2/2 390/2/2
f 388/1/2 389/1/2 391/1/2
f 390/2/2 388/2/2 391/2/2
f 391/1/2 389/1/2 392/1/2
f 391/2/2 392/2/2 393/2/2
f 392/1/2 389/1/2 394/1/2
f 393/2/2 392/2/2 394/2/2
f 394/1/2 389/1/2 395/1/2
f 394/2/2 395/2/2 396/2/2
f 395/1/2 389/1/2 397/1/2
f 396/2/2 395/2/2 397/2/2
f 397/1/2 389/1/2 398/1/2
f 397/2/2 398/2/2 399/2/2
f 398/1/2 389/1/2 400/1/2
f 399/2/2 398/2/2 400/2/2
f 400/1/2 389/1/2 401/1/2
f 400/2/2 401/2/2 402/2/2
f 401/1/2 389/1/2 403/1/2
f 402/2/2 401/2/2 403/2/2
f 403/1/2 389/1/2 404/1/2
f 403/2/2 404/2/2 405/2/2
f 404/1/2 389/1/2 406/1/2
f 405/2/2 404/2/2 406/2/2
f 406/1/2 389/1/2 407/1/2
f 406/2/2 407/2/2 408/2/2
f 407/1/2 389/1/2 409/1/2
f 408/2/2 407/2/2 409/2/2
f 409/1/2 389/1/2 410/1/2
f 409/2/2 410/2/2 411/2/2
f 410/1/2 389/1/2 412/1/2
f 411/2/2 410/2/2 412/2/2
f 412/1/2 389/1/2 413/1/2
f 412/2/2 413/2/2 414/2/2
f 413/1/2 389/1/2 415/1/2
f 414/2/2 413/2/2 415/2/2
f 415/1/2 389/1/2 416/1/2
f 415/2/2 416/2/2 417/2/2
f 416/1/2 389/1/2 418/1/2
f 417/2/2 416/2/2 418/2/2
f 418/1/2 389/1/2 419/1/2
f 418/2/2 419/2/2 420/2/2
f 419/1/2 389/1/2 421/1/2
f 420/2/2 419/2/2 421/2/2
f 421/1/2 389/1/2 422/1/2
f 421/2/2 422/2/2 423/2/2
f 422/1/2 389/1/2 424/1/2
f 423/2/2 422/2/2 424/2/2
f 424/1/2 389/1/2 425/1/2
f 424/2/2 425/2/2 426/2/2
f 425/1/2 389/1/2 427/1/2
f 426/2/2 425/2/2 427/2/2
f 389/2/2 385/2/2 428/2/2
f 427/1/2 389/1/2 428/1/2
f 427/2/2 428/2/2 429/2/2
f 428/2/2 385/2/2 430/2/2
f 429/2/2 428/2/2 430/2/2
f 430/2/2 385/2/2 431/2/2
f 431/2/2 385/2/2 432/2/2
f 435/2/3 434/2/3 433/2/3
f 436/2/3 434/2/3 435/2/3
f 437/2/3 434/2/3 436/2/3
f 438/2/3 434/2/3 437/2/3
f 439/1/3 436/1/3 435/1/3
f 440/2/3 437/2/3 436/2/3
f 440/1/3 436/1/3 439/1/3
f 441/2/3 437/2/3 440/2/3
f 442/1/3 439/1/3 435/1/3
f 443/2/3 440/2/3 439/2/3
f 443/1/3 439/1/3 442/1/3
f 444/2/3 440/2/3 443/2/3
f 445/1/3 442/1/3 435/1/3
f 446/2/3 443/2/3 442/2/3
f 446/1/3 442/1/3 445/1/3
f 447/2/3 443/2/3 446/2/3
f 448/1/3 445/1/3 435/1/3
f 449/2/3 446/2/3 445/2/3
f 449/1/3 445/1/3 448/1/3
f 450/2/3 446/2/3 449/2/3
f 451/1/3 448/1/3 435/1/3
f 452/2/3 449/2/3 448/2/3
f 452/1/3 448/1/3 451/1/3
f 453/2/3 449/2/3 452/2/3
f 454/1/3 451/1/3 435/1/3
f 455/2/3 452/2/3 451/2/3
f 455/1/3 451/1/3 454/1/3
f 456/2/3 452/2/3 455/2/3
f 457/1/3 454/1/3 435/1/3
f 458/2/3 455/2/3 454/2/3
f 458/1/3 454/1/3 457/1/3
f 459/2/3 455/2/3 458/2/3
f 460/1/3 457/1/3 435/1/3
f 461/2/3 458/2/3 457/2/3
f 461/1/3 457/1/3 460/1/3
f 462/2/3 458/2/3 461/2/3
f 463/1/3 460/1/3 435/1/3
f 464/2/3 461/2/3 460/2/3
f 464/1/3 460/1/3 463/1/3
f 465/2/3 461/2/3 464/2/3
f 466/1/3 463/1/3 435/1/3
f 467/2/3 464/2/3 463/2/3
f 467/1/3 463/1/3 466/1/3
f 468/2/3 464/2/3 467/2/3
f 469/1/3 466/1/3 435/1/3
f 470/2/3 467/2/3 466/2/3
f 470/1/3 466/1/3 469/1/3
f 471/2/3 467/2/3 470/2/3
f 472/1/3 469/1/3 435/1/3
f 473/2/3 470/2/3 469/2/3
f 473/1/3 469/1/3 472/1/3
f 474/2/3 470/2/3 473/2/3
f 475/2/3 435/2/3 433/2/3
f 475/1/3 472/1/3 435/1/3
f 476/2/3 473/2/3 472/2/3
f 476/1/3 472/1/3 475/1/3
f 477/2/3 473/2/3 476/2/3
f 478/2/3 475/2/3 433/2/3
f 478/2/3 476/2/3 475/2/3
f 479/2/3 476/2/3 478/2/3
f 480/2/3 478/2/3 433/2/3
f 481/2/3 478/2/3 480/2/3
f 485/2/3 483/2/3 482/2/3
f 486/2/3 483/2/3 485/2/3
f 488/1/3 485/1/3 484/1/3
f 489/1/3 485/1/3 488/1/3
f 491/1/3 488/1/3 487/1/3
f 492/1/3 488/1/3 491/1/3
f 494/1/3 491/1/3 490/1/3
f 495/1/3 491/1/3 494/1/3
f 497/1/3 494/1/3 493/1/3
f 498/1/3 494/1/3 497/1/3
f 500/1/3 497/1/3 496/1/3
f 501/1/3 497/1/3 500/1/3
f 503/1/3 500/1/3 499/1/3
f 504/1/3 500/1/3 503/1/3
f 506/1/3 503/1/3 502/1/3
f 507/1/3 503/1/3 506/1/3
f 509/1/3 506/1/3 505/1/3
f 510/1/3 506/1/3 509/1/3
f 512/1/3 509/1/3 508/1/3
f 513/1/3 509/1/3 512/1/3
f 515/1/3 512/1/3 511/1/3
f 516/1/3 512/1/3 515/1/3
f 518/1/3 515/1/3 514/1/3
f 519/1/3 515/1/3 518/1/3
f 521/1/3 518/1/3 517/1/3
f 522/1/3 518/1/3 521/1/3
f 524/1/3 521/1/3 520/1/3
f 525/1/3 521/1/3 524/1/3
f 526/2/3 524/2/3 523/2/3
f 527/2/3 524/2/3 526/2/3
f 531/2/3 529/2/3 528/2/3
f 532/2/3 529/2/3 531/2/3
f 534/1/3 531/1/3 530/1/3
f 535/1/3 531/1/3 534/1/3
f 537/1/3 534/1/3 533/1/3
f 538/1/3 534/1/3 537/1/3
f 540/1/3 537/1/3 536/1/3
f 541/1/3 537/1/3 540/1/3
f 543/1/3 540/1/3 539/1/3
f 544/1/3 540/1/3 543/1/3
f 546/1/3 543/1/3 542/1/3
f 547/1/3 543/1/3 546/1/3
f 549/1/3 546/1/3 545/1/3
f 550/1/3 546/1/3 549/1/3
f 552/1/3 549/1/3 548/1/3
f 553/1/3 549/1/3 552/1/3
f 555/1/3 552/1/3 551/1/3
f 556/1/3 552/1/3 555/1/3
f 558/1/3 555/1/3 554/1/3
f 559/1/3 555/1/3 558/1/3
f 561/1/3 558/1/3 557/1/3
f 562/1/3 558/1/3 561/1/3
f 564/1/3 561/1/3 560/1/3
f 565/1/3 561/1/3 564/1/3
f 567/1/3 564/1/3 563/1/3
f 568/1/3 564/1/3 567/1/3
f 569/2/3 567/2/3 566/2/3
f 570/2/3 567/2/3 569/2/3
f 574/2/3 572/2/3 571/2/3
f 575/2/3 572/2/3 574/2/3
f 577/1/3 574/1/3 573/1/3
f 578/1/3 574/1/3 577/1/3
f 580/1/3 577/1/3 576/1/3
f 581/1/3 577/1/3 580/1/3
f 583/1/3 580/1/3 579/1/3
f 584/1/3 580/1/3 583/1/3
f 586/1/3 583/1/3 582/1/3
f 587/1/3 583/1/3 586/1/3
f 589/1/3 586/1/3 585/1/3
f 590/1/3 586/1/3 589/1/3
f 592/1/3 589/1/3 588/1/3
f 593/1/3 589/1/3 592/1/3
f 595/1/3 592/1/3 591/1/3
f 596/1/3 592/1/3 595/1/3
f 598/1/3 595/1/3 594/1/3
f 599/1/3 595/1/3 598/1/3
f 601/1/3 598/1/3 597/1/3
f 602/1/3 598/1/3 601/1/3
f 604/1/3 601/1/3 600/1/3
f 605/1/3 601/1/3 604/1/3
f 607/1/3 604/1/3 603/1/3
f 608/1/3 604/1/3 607/1/3
f 609/2/3 607/2/3 606/2/3
f 610/2/3 607/2/3 609/2/3
f 614/2/3 612/2/3 611/2/3
f 615/2/3 612/2/3 614/2/3
f 617/1/3 614/1/3 613/1/3
f 618/1/3 614/1/3 617/1/3
f 620/1/3 617/1/3 616/1/3
f 621/1/3 617/1/3 620/1/3
f 623/1/3 620/1/3 619/1/3
f 624/1/3 620/1/3 623/1/3
f 626/1/3 623/1/3 622/1/3
f 627/1/3 623/1/3 626/1/3
f 629/1/3 626/1/3 625/1/3
f 630/1/3 626/1/3 629/1/3
f 632/1/3 629/1/3 628/1/3
f 633/1/3 629/1/3 632/1/3
f 635/1/3 632/1/3 631/1/3
f 636/1/3 632/1/3 635/1/3
f 638/1/3 635/1/3 634/1/3
f 639/1/3 635/1/3 638/1/3
f 641/1/3 638/1/3 637/1/3
f 642/1/3 638/1/3 641/1/3
f 644/1/3 641/1/3 640/1/3
f 645/1/3 641/1/3 644/1/3
f 646/2/3 644/2/3 643/2/3
f 647/2/3 644/2/3 646/2/3
f 651/2/3 649/2/3 648/2/3
f 652/2/3 649/2/3 651/2/3
f 654/1/3 651/1/3 650/1/3
f 655/1/3 651/1/3 654/1/3
f 657/1/3 654/1/3 653/1/3
f 658/1/3 654/1/3 657/1/3
f 660/1/3 657/1/3 656/1/3
f 661/1/3 657/1/3 660/1/3
f 663/1/3 660/1/3 659/1/3
f 664/1/3 660/1/3 663/1/3
f 666/1/3 663/1/3 662/1/3
f 667/1/3 663/1/3 666/1/3
f 669/1/3 666/1/3 665/1/3
f 670/1/3 666/1/3 669/1/3
f 672/1/3 669/1/3 668/1/3
f 673/1/3 669/1/3 672/1/3
f 675/1/3 672/1/3 671/1/3
f 676/1/3 672/1/3 675/1/3
f 678/1/3 675/1/3 674/1/3
f 679/1/3 675/1/3 678/1/3
f 680/2/3 678/2/3 677/2/3
f 681/2/3 678/2/3 680/2/3
f 685/2/3 683/2/3 682/2/3
f 686/2/3 683/2/3 685/2/3
f 688/1/3 685/1/3 684/1/3
f 689/1/3 685/1/3 688/1/3
f 691/1/3 688/1/3 687/1/3
f 692/1/3 688/1/3 691/1/3
f 694/1/3 691/1/3 690/1/3
f 695/1/3 691/1/3 694/1/3
f 697/1/3 694/1/3 693/1/3
f 698/1/3 694/1/3 697/1/3
f 700/1/3 697/1/3 696/1/3
f 701/1/3 697/1/3 700/1/3
f 703/1/3 700/1/3 699/1/3
f 704/1/3 700/1/3 703/1/3
f 706/1/3 703/1/3 702/1/3
f 707/1/3 703/1/3 706/1/3
f 709/1/3 706/1/3 705/1/3
f 710/1/3 706/1/3 709/1/3
f 711/2/3 709/2/3 708/2/3
f 712/2/3 709/2/3 711/2/3
f 716/2/3 714/2/3 713/2/3
f 717/2/3 714/2/3 716/2/3
f 719/1/3 716/1/3 715/1/3
f 720/1/3 716/1/3 719/1/3
f 722/1/3 719/1/3 718/1/3
f 723/1/3 719/1/3 722/1/3
f 725/1/3 722/1/3 721/1/3
f 726/1/3 722/1/3 725/1/3
f 728/1/3 725/1/3 724/1/3
f 729/1/3 725/1/3 728/1/3
f 731/1/3 728/1/3 727/1/3
f 732/1/3 728/1/3 731/1/3
f 734/1/3 731/1/3 730/1/3
f 735/1/3 731/1/3 734/1/3
f 737/1/3 734/1/3 733/1/3
f 738/1/3 734/1/3 737/1/3
f 739/2/3 737/2/3 736/2/3
f 740/2/3 737/2/3 739/2/3
f 744/2/3 742/2/3 741/2/3
f 745/2/3 742/2/3 744/2/3
f 747/1/3 744/1/3 743/1/3
f 748/1/3 744/1/3 747/1/3
f 750/1/3 747/1/3 746/1/3
f 751/1/3 747/1/3 750/1/3
f 753/1/3 750/1/3 749/1/3
f 754/1/3 750/1/3 753/1/3
f 756/1/3 753/1/3 752/1/3
f 757/1/3 753/1/3 756/1/3
f 759/1/3 756/1/3 755/1/3
f 760/1/3 756/1/3 759/1/3
f 762/1/3 759/1/3 758/1/3
f 763/1/3 759/1/3 762/1/3
f 764/2/3 762/2/3 761/2/3
f 765/2/3 762/2/3 764/2/3
f 769/2/3 767/2/3 766/2/3
f 770/2/3 767/2/3 769/2/3
f 772/1/3 769/1/3 768/1/3
f 773/1/3 769/1/3 772/1/3
f 775/1/3 772/1/3 771/1/3
f 776/1/3 772/1/3 775/1/3
f 778/1/3 775/1/3 774/1/3
f 779/1/3 775/1/3 778/1/3
f 781/1/3 778/1/3 777/1/3
f 782/1/3 778/1/3 781/1/3
f 784/1/3 781/1/3 780/1/3
f 785/1/3 781/1/3 784/1/3
f 786/2/3 784/2/3 783/2/3
f 787/2/3 784/2/3 786/2/3
f 791/2/3 789/2/3 788/2/3
f 792/2/3 789/2/3 791/2/3
f 794/1/3 791/1/3 790/1/3
f 795/1/3 791/1/3 794/1/3
f 797/1/3 794/1/3 793/1/3
f 798/1/3 794/1/3 797/1/3
f 800/1/3 797/1/3 796/1/3
f 801/1/3 797/1/3 800/1/3
f 803/1/3 800/1/3 799/1/3
f 804/1/3 800/1/3 803/1/3
f 805/2/3 803/2/3 802/2/3
f 806/2/3 803/2/3 805/2/3
f 810/2/3 808/2/3 807/2/3
f 811/2/3 808/2/3 810/2/3
f 813/1/3 810/1/3 809/1/3
f 814/1/3 810/1/3 813/1/3
f 816/1/3 813/1/3 812/1/3
f 817/1/3 813/1/3 816/1/3
f 819/1/3 816/1/3 815/1/3
f 820/1/3 816/1/3 819/1/3
f 821/2/3 819/2/3 818/2/3
f 822/2/3 819/2/3 821/2/3
f 826/2/3 824/2/3 823/2/3
f 827/2/3 824/2/3 826/2/3
f 829/1/3 826/1/3 825/1/3
f 830/1/3 826/1/3 829/1/3
f 832/1/3 829/1/3 828/1/3
f 833/1/3 829/1/3 832/1/3
f 834/2/3 832/2/3 831/2/3
f 835/2/3 832/2/3 834/2/3
f 839/2/3 837/2/3 836/2/3
f 840/2/3 837/2/3 839/2/3
f 842/1/3 839/1/3 838/1/3
f 843/1/3 839/1/3 842/1/3
f 844/2/3 842/2/3 841/2/3
f 845/2/3 842/2/3 844/2/3
f 849/2/3 847/2/3 846/2/3
f 850/2/3 847/2/3 849/2/3
f 851/2/3 849/2/3 848/2/3
f 852/2/3 849/2/3 851/2/3
f 855/2/3 854/2/3 853/2/3
f 856/2/3 854/2/3 855/2/3
f 857/2/4 858/2/4 859/2/4
f 859/2/4 858/2/4 860/2/4
f 857/2/4 859/2/4 861/2/4
f 859/1/4 860/1/4 861/1/4
f 860/2/4 858/2/4 862/2/4
f 861/1/4 860/1/4 862/1/4
f 857/2/4 861/2/4 863/2/4
f 861/2/4 862/2/4 863/2/4
f 862/2/4 858/2/4 864/2/4
f 863/2/4 862/2/4 864/2/4
f 867/2/5 866/2/5 865/2/5
f 868/2/5 866/2/5 867/2/5
f 869/2/5 867/2/5 865/2/5
f 869/1/5 868/1/5 867/1/5
f 870/2/5 866/2/5 868/2/5
f 870/1/5 868/1/5 869/1/5
f 871/2/5 869/2/5 865/2/5
f 871/2/5 870/2/5 869/2/5
f 872/2/5 866/2/5 870/2/5
f 872/2/5 870/2/5 871/2/5
f 873/2/6 874/2/6 875/2/6
f 875/2/6 874/2/6 876/2/6
f 877/2/6 878/2/6 879/2/6
f 879/2/6 878/2/6 880/2/6
f 880/2/6 881/2/6 882/2/6
f 882/2/6 881/2/6 883/2/6
f 884/2/6 885/2/6 886/2/6
f 886/2/6 885/2/6 887/2/6
f 887/1/6 888/1/6 889/1/6
f 889/1/6 888/1/6 890/1/6
f 890/2/6 891/2/6 892/2/6
f 892/2/6 891/2/6 893/2/6
f 894/2/6 895/2/6 896/2/6
f 896/2/6 895/2/6 897/2/6
f 897/1/6 898/1/6 899/1/6
f 899/1/6 898/1/6 900/1/6
f 900/1/6 901/1/6 902/1/6
f 902/1/6 901/1/6 903/1/6
f 903/2/6 904/2/6 905/2/6
f 905/2/6 904/2/6 906/2/6
f 907/2/6 908/2/6 909/2/6
f 909/2/6 908/2/6 910/2/6
f 910/1/6 911/1/6 912/1/6
f 912/1/6 911/1/6 913/1/6
f 913/1/6 914/1/6 915/1/6
f 915/1/6 914/1/6 916/1/6
f 916/1/6 917/1/6 918/1/6
f 918/1/6 917/1/6 919/1/6
f 919/2/6 920/2/6 921/2/6
f 921/2/6 920/2/6 922/2/6
f 923/2/6 924/2/6 925/2/6
f 925/2/6 924/2/6 926/2/6
f 926/1/6 927/1/6 928/1/6
f 928/1/6 927/1/6 929/1/6
f 929/1/6 930/1/6 931/1/6
f 931/1/6 930/1/6 932/1/6
f 932/1/6 933/1/6 934/1/6
f 934/1/6 933/1/6 935/1/6
f 935/1/6 936/1/6 937/1/6
f 937/1/6 936/1/6 938/1/6
f 938/2/6 939/2/6 940/2/6
f 940/2/6 939/2/6 941/2/6
f 942/2/6 943/2/6 944/2/6
f 944/2/6 943/2/6 945/2/6
f 945/1/6 946/1/6 947/1/6
f 947/1/6 946/1/6 948/1/6
f 948/1/6 949/1/6 950/1/6
f 950/1/6 949/1/6 951/1/6
f 951/1/6 952/1/6 953/1/6
f 953/1/6 952/1/6 954/1/6
f 954/1/6 955/1/6 956/1/6
f 956/1/6 955/1/6 957/1/6
f 957/1/6 958/1/6 959/1/6
f 959/1/6 958/1/6 960/1/6
f 960/2/6 961/2/6 962/2/6
f 962/2/6 961/2/6 963/2/6
f 964/2/6 965/2/6 966/2/6
f 966/2/6 965/2/6 967/2/6
f 967/1/6 968/1/6 969/1/6
f 969/1/6 968/1/6 970/1/6
f 970/1/6 971/1/6 972/1/6
f 972/1/6 971/1/6 973/1/6
f 973/1/6 974/1/6 975/1/6
f 975/1/6 974/1/6 976/1/6
f 976/1/6 977/1/6 978/1/6
f 978/1/6 977/1/6 979/1/6
f 979/1/6 980/1/6 981/1/6
f 981/1/6 980/1/6 982/1/6
f 982/1/6 983/1/6 984/1/6
f 984/1/6 983/1/6 985/1/6
f 985/2/6 986/2/6 987/2/6
f 987/2/6 986/2/6 988/2/6
f 989/2/6 990/2/6 991/2/6
f 991/2/6 990/2/6 992/2/6
f 992/1/6 993/1/6 994/1/6
f 994/1/6 993/1/6 995/1/6
f 995/1/6 996/1/6 997/1/6
f 997/1/6 996/1/6 998/1/6
f 998/1/6 999/1/6 1000/1/6
f 1000/1/6 999/1/6 1001/1/6
f 1001/1/6 1002/1/6 1003/1/6
f 1003/1/6 1002/1/6 1004/1/6
f 1004/1/6 1005/1/6 1006/1/6
f 1006/1/6 1005/1/6 1007/1/6
f 1007/1/6 1008/1/6 1009/1/6
f 1009/1/6 1008/1/6 1010/1/6
f 1010/1/6 1011/1/6 1012/1/6
f 1012/1/6 1011/1/6 1013/1/6
f 1013/2/6 1014/2/6 1015/2/6
f 1015/2/6 1014/2/6 1016/2/6
f 1017/2/6 1018/2/6 1019/2/6
f 1019/2/6 1018/2/6 1020/2/6
f 1020/1/6 1021/1/6 1022/1/6
f 1022/1/6 1021/1/6 1023/1/6
f 1023/1/6 1024/1/6 1025/1/6
f 1025/1/6 1024/1/6 1026/1/6
f 1026/1/6 1027/1/6 1028/1/6
f 1028/1/6 1027/1/6 1029/1/6
f 1029/1/6 1030/1/6 1031/1/6
f 1031/1/6 1030/1/6 1032/1/6
f 1032/1/6 1033/1/6 1034/1/6
f 1034/1/6 1033/1/6 1035/1/6
f 1035/1/6 1036/1/6 1037/1/6
f 1037/1/6 1036/1/6 1038/1/6
f 1038/1/6 1039/1/6 1040/1/6
f 1040/1/6 1039/1/6 1041/1/6
f 1041/1/6 1042/1/6 1043/1/6
f 1043/1/6 1042/1/6 1044/1/6
f 1044/2/6 1045/2/6 1046/2/6
f 1046/2/6 1045/2/6 1047/2/6
f 1048/2/6 1049/2/6 1050/2/6
f 1050/2/6 1049/2/6 1051/2/6
f 1051/1/6 1052/1/6 1053/1/6
f 1053/1/6 1052/1/6 1054/1/6
f 1054/1/6 1055/1/6 1056/1/6
f 1056/1/6 1055/1/6 1057/1/6
f 1057/1/6 1058/1/6 1059/1/6
f 1059/1/6 1058/1/6 1060/1/6
f 1060/1/6 1061/1/6 1062/1/6
f 1062/1/6 1061/1/6 1063/1/6
f 1063/1/6 1064/1/6 1065/1/6
f 1065/1/6 1064/1/6 1066/1/6
f 1066/1/6 1067/1/6 1068/1/6
f 1068/1/6 1067/1/6 1069/1/6
f 1069/1/6 1070/1/6 1071/1/6
f 1071/1/6 1070/1/6 1072/1/6
f 1072/1/6 1073/1/6 1074/1/6
f 1074/1/6 1073/1/6 1075/1/6
f 1075/1/6 1076/1/6 1077/1/6
f 1077/1/6 1076/1/6 1078/1/6
f 1078/2/6 1079/2/6 1080/2/6
f 1080/2/6 1079/2/6 1081/2/6
f 1082/2/6 1083/2/6 1084/2/6
f 1084/2/6 1083/2/6 1085/2/6
f 1085/1/6 1086/1/6 1087/1/6
f 1087/1/6 1086/1/6 1088/1/6
f 1088/1/6 1089/1/6 1090/1/6
f 1090/1/6 1089/1/6 1091/1/6
f 1091/1/6 1092/1/6 1093/1/6
f 1093/1/6 1092/1/6 1094/1/6
f 1094/1/6 1095/1/6 1096/1/6
f 1096/1/6 1095/1/6 1097/1/6
f 1097/1/6 1098/1/6 1099/1/6
f 1099/1/6 1098/1/6 1100/1/6
f 1100/1/6 1101/1/6 1102/1/6
f 1102/1/6 1101/1/6 1103/1/6
f 1103/1/6 1104/1/6 1105/1/6
f 1105/1/6 1104/1/6 1106/1/6
f 1106/1/6 1107/1/6 1108/1/6
f 1108/1/6 1107/1/6 1109/1/6
f 1109/1/6 1110/1/6 1111/1/6
f 1111/1/6 1110/1/6 1112/1/6
f 1112/1/6 1113/1/6 1114/1/6
f 1114/1/6 1113/1/6 1115/1/6
f 1115/2/6 1116/2/6 1117/2/6
f 1117/2/6 1116/2/6 1118/2/6
f 1119/2/6 1120/2/6 1121/2/6
f 1121/2/6 1120/2/6 1122/2/6
f 1122/1/6 1123/1/6 1124/1/6
f 1124/1/6 1123/1/6 1125/1/6
f 1125/1/6 1126/1/6 1127/1/6
f 1127/1/6 1126/1/6 1128/1/6
f 1128/1/6 1129/1/6 1130/1/6
f 1130/1/6 1129/1/6 1131/1/6
f 1131/1/6 1132/1/6 1133/1/6
f 1133/1/6 1132/1/6 1134/1/6
f 1134/1/6 1135/1/6 1136/1/6
f 1136/1/6 1135/1/6 1137/1/6
f 1137/1/6 1138/1/6 1139/1/6
f 1139/1/6 1138/1/6 1140/1/6
f 1140/1/6 1141/1/6 1142/1/6
f 1142/1/6 1141/1/6 1143/1/6
f 1143/1/6 1144/1/6 1145/1/6
f 1145/1/6 1144/1/6 1146/1/6
f 1146/1/6 1147/1/6 1148/1/6
f 1148/1/6 1147/1/6 1149/1/6
f 1149/1/6 1150/1/6 1151/1/6
f 1151/1/6 1150/1/6 1152/1/6
f 1152/1/6 1153/1/6 1154/1/6
f 1154/1/6 1153/1/6 1155/1/6
f 1155/2/6 1156/2/6 1157/2/6
f 1157/2/6 1156/2/6 1158/2/6
f 1159/2/6 1160/2/6 1161/2/6
f 1161/2/6 1160/2/6 1162/2/6
f 1162/1/6 1163/1/6 1164/1/6
f 1164/1/6 1163/1/6 1165/1/6
f 1165/1/6 1166/1/6 1167/1/6
f 1167/1/6 1166/1/6 1168/1/6
f 1168/1/6 1169/1/6 1170/1/6
f 1170/1/6 1169/1/6 1171/1/6
f 1171/1/6 1172/1/6 1173/1/6
f 1173/1/6 1172/1/6 1174/1/6
f 1174/1/6 1175/1/6 1176/1/6
f 1176/1/6 1175/1/6 1177/1/6
f 1177/1/6 1178/1/6 1179/1/6
f 1179/1/6 1178/1/6 1180/1/6
f 1180/1/6 1181/1/6 1182/1/6
f 1182/1/6 1181/1/6 1183/1/6
f 1183/1/6 1184/1/6 1185/1/6
f 1185/1/6 1184/1/6 1186/1/6
f 1186/1/6 1187/1/6 1188/1/6
f 1188/1/6 1187/1/6 1189/1/6
f 1189/1/6 1190/1/6 1191/1/6
f 1191/1/6 1190/1/6 1192/1/6
f 1192/1/6 1193/1/6 1194/1/6
f 1194/1/6 1193/1/6 1195/1/6
f 1195/1/6 1196/1/6 1197/1/6
f 1197/1/6 1196/1/6 1198/1/6
f 1198/2/6 1199/2/6 1200/2/6
f 1200/2/6 1199/2/6 1201/2/6
f 1202/2/6 1203/2/6 1204/2/6
f 1204/2/6 1203/2/6 1205/2/6
f 1205/1/6 1206/1/6 1207/1/6
f 1207/1/6 1206/1/6 1208/1/6
f 1208/1/6 1209/1/6 1210/1/6
f 1210/1/6 1209/1/6 1211/1/6
f 1211/1/6 1212/1/6 1213/1/6
f 1213/1/6 1212/1/6 1214/1/6
f 1214/1/6 1215/1/6 1216/1/6
f 1216/1/6 1215/1/6 1217/1/6
f 1217/1/6 1218/1/6 1219/1/6
f 1219/1/6 1218/1/6 1220/1/6
f 1220/1/6 1221/1/6 1222/1/6
f 1222/1/6 1221/1/6 1223/1/6
f 1223/1/6 1224/1/6 1225/1/6
f 1225/1/6 1224/1/6 1226/1/6
f 1226/1/6 1227/1/6 1228/1/6
f 1228/1/6 1227/1/6 1229/1/6
f 1229/1/6 1230/1/6 1231/1/6
f 1231/1/6 1230/1/6 1232/1/6
f 1232/1/6 1233/1/6 1234/1/6
f 1234/1/6 1233/1/6 1235/1/6
f 1235/1/6 1236/1/6 1237/1/6
f 1237/1/6 1236/1/6 1238/1/6
f 1238/1/6 1239/1/6 1240/1/6
f 1240/1/6 1239/1/6 1241/1/6
f 1241/1/6 1242/1/6 1243/1/6
f 1243/1/6 1242/1/6 1244/1/6
f 1244/2/6 1245/2/6 1246/2/6
f 1246/2/6 1245/2/6 1247/2/6
f 1248/2/6 1249/2/6 1250/2/6
f 1248/2/6 1250/2/6 1252/2/6
f 1250/2/6 1251/2/6 1252/2/6
f 1252/2/6 1251/2/6 1253/2/6
f 1252/1/6 1253/1/6 1255/1/6
f 1253/2/6 1254/2/6 1255/2/6
f 1255/2/6 1254/2/6 1256/2/6
f 1255/1/6 1256/1/6 1258/1/6
f 1256/2/6 1257/2/6 1258/2/6
f 1258/2/6 1257/2/6 1259/2/6
f 1258/1/6 1259/1/6 1261/1/6
f 1259/2/6 1260/2/6 1261/2/6
f 1261/2/6 1260/2/6 1262/2/6
f 1261/1/6 1262/1/6 1264/1/6
f 1262/2/6 1263/2/6 1264/2/6
f 1264/2/6 1263/2/6 1265/2/6
f 1264/1/6 1265/1/6 1267/1/6
f 1265/2/6 1266/2/6 1267/2/6
f 1267/2/6 1266/2/6 1268/2/6
f 1267/1/6 1268/1/6 1270/1/6
f 1268/2/6 1269/2/6 1270/2/6
f 1270/2/6 1269/2/6 1271/2/6
f 1270/1/6 1271/1/6 1273/1/6
f 1271/2/6 1272/2/6 1273/2/6
f 1273/2/6 1272/2/6 1274/2/6
f 1273/1/6 1274/1/6 1276/1/6
f 1274/2/6 1275/2/6 1276/2/6
f 1276/2/6 1275/2/6 1277/2/6
f 1276/1/6 1277/1/6 1279/1/6
f 1277/2/6 1278/2/6 1279/2/6
f 1279/2/6 1278/2/6 1280/2/6
f 1279/1/6 1280/1/6 1282/1/6
f 1280/2/6 1281/2/6 1282/2/6
f 1282/2/6 1281/2/6 1283/2/6
f 1282/1/6 1283/1/6 1285/1/6
f 1283/2/6 1284/2/6 1285/2/6
f 1285/2/6 1284/2/6 1286/2/6
f 1285/1/6 1286/1/6 1288/1/6
f 1286/2/6 1287/2/6 1288/2/6
f 1288/2/6 1287/2/6 1289/2/6
f 1248/2/6 1252/2/6 1291/2/6
f 1252/1/6 1255/1/6 1291/1/6
f 1288/1/6 1289/1/6 1291/1/6
f 1285/1/6 1288/1/6 1291/1/6
f 1282/1/6 1285/1/6 1291/1/6
f 1279/1/6 1282/1/6 1291/1/6
f 1276/1/6 1279/1/6 1291/1/6
f 1273/1/6 1276/1/6 1291/1/6
f 1270/1/6 1273/1/6 1291/1/6
f 1267/1/6 1270/1/6 1291/1/6
f 1264/1/6 1267/1/6 1291/1/6
f 1261/1/6 1264/1/6 1291/1/6
f 1258/1/6 1261/1/6 1291/1/6
f 1255/1/6 1258/1/6 1291/1/6
f 1289/2/6 1290/2/6 1292/2/6
f 1291/1/6 1289/1/6 1292/1/6
f 1292/2/6 1290/2/6 1293/2/6
f 1248/2/6 1291/2/6 1295/2/6
f 1293/2/6 1294/2/6 1295/2/6
f 1292/2/6 1293/2/6 1295/2/6
f 1291/2/6 1292/2/6 1295/2/6
f 1295/2/6 1294/2/6 1296/2/6
