# MagicaVoxel @ Ephtracy

# material
mtllib slope sqr corner.mtl
usemtl palette

# normals
vn -1 0 0
vn 1 0 0
vn 0 0 1
vn 0 0 -1
vn 0 -1 0
vn 0 1 0

# texcoords
vt 0.958984 0.5
vt 0.994141 0.5

# verts
v -8 0 8
v -8 0 -8
v -8 1 8
v -8 1 7
v -8 1 6
v -8 1 -7
v -8 2 7
v -8 2 6
v -8 2 5
v -8 3 6
v -8 3 5
v -8 3 4
v -8 4 5
v -8 4 4
v -8 4 3
v -8 5 4
v -8 5 3
v -8 5 2
v -8 6 3
v -8 6 2
v -8 6 1
v -8 7 2
v -8 7 1
v -8 7 -0
v -8 8 1
v -8 8 -0
v -8 8 -1
v -8 9 -0
v -8 9 -1
v -8 9 -2
v -8 10 -1
v -8 10 -2
v -8 10 -3
v -8 11 -2
v -8 11 -3
v -8 11 -4
v -8 12 -3
v -8 12 -4
v -8 12 -5
v -8 13 -4
v -8 13 -5
v -8 13 -6
v -8 14 -5
v -8 14 -6
v -8 14 -7
v -8 15 -6
v -8 15 -7
v -8 16 -7
v -8 16 -8
v -7 15 -7
v -7 15 -8
v -7 16 -7
v -7 16 -8
v -6 14 -6
v -6 14 -7
v -6 14 -8
v -6 15 -6
v -6 15 -8
v -5 13 -5
v -5 13 -6
v -5 13 -7
v -5 13 -8
v -5 14 -5
v -5 14 -6
v -5 14 -7
v -5 14 -8
v -4 12 -4
v -4 12 -5
v -4 12 -7
v -4 12 -8
v -4 13 -4
v -4 13 -5
v -4 13 -7
v -4 13 -8
v -3 11 -3
v -3 11 -4
v -3 11 -7
v -3 11 -8
v -3 12 -3
v -3 12 -4
v -3 12 -7
v -3 12 -8
v -2 10 -2
v -2 10 -3
v -2 10 -7
v -2 10 -8
v -2 11 -2
v -2 11 -3
v -2 11 -7
v -2 11 -8
v -1 9 -1
v -1 9 -2
v -1 9 -7
v -1 9 -8
v -1 10 -1
v -1 10 -2
v -1 10 -7
v -1 10 -8
v 0 8 -0
v 0 8 -1
v 0 8 -7
v 0 8 -8
v 0 9 -0
v 0 9 -1
v 0 9 -7
v 0 9 -8
v 1 7 1
v 1 7 -0
v 1 7 -7
v 1 7 -8
v 1 8 1
v 1 8 -0
v 1 8 -7
v 1 8 -8
v 2 6 2
v 2 6 1
v 2 6 -7
v 2 6 -8
v 2 7 2
v 2 7 1
v 2 7 -7
v 2 7 -8
v 3 5 3
v 3 5 2
v 3 5 -7
v 3 5 -8
v 3 6 3
v 3 6 2
v 3 6 -7
v 3 6 -8
v 4 4 4
v 4 4 3
v 4 4 -7
v 4 4 -8
v 4 5 4
v 4 5 3
v 4 5 -7
v 4 5 -8
v 5 3 5
v 5 3 4
v 5 3 -7
v 5 3 -8
v 5 4 5
v 5 4 4
v 5 4 -7
v 5 4 -8
v 6 2 6
v 6 2 5
v 6 2 -7
v 6 2 -8
v 6 3 6
v 6 3 5
v 6 3 -7
v 6 3 -8
v 7 1 7
v 7 1 6
v 7 1 -7
v 7 1 -8
v 7 2 7
v 7 2 6
v 7 2 -7
v 7 2 -8
v 8 0 8
v 8 0 -8
v 8 1 8
v 8 1 -8
v -8 0 8
v -8 1 8
v 8 0 8
v 8 1 8
v -8 1 7
v -8 2 7
v -7 1 7
v -7 2 7
v 6 1 7
v 6 2 7
v 7 1 7
v 7 2 7
v -8 2 6
v -8 3 6
v -7 2 6
v -7 3 6
v 5 2 6
v 5 3 6
v 6 2 6
v 6 3 6
v -8 3 5
v -8 4 5
v -7 3 5
v -7 4 5
v 4 3 5
v 4 4 5
v 5 3 5
v 5 4 5
v -8 4 4
v -8 5 4
v -7 4 4
v -7 5 4
v 3 4 4
v 3 5 4
v 4 4 4
v 4 5 4
v -8 5 3
v -8 6 3
v -7 5 3
v -7 6 3
v 2 5 3
v 2 6 3
v 3 5 3
v 3 6 3
v -8 6 2
v -8 7 2
v -7 6 2
v -7 7 2
v 1 6 2
v 1 7 2
v 2 6 2
v 2 7 2
v -8 7 1
v -8 8 1
v -7 7 1
v -7 8 1
v 0 7 1
v 0 8 1
v 1 7 1
v 1 8 1
v -8 8 -0
v -8 9 -0
v -7 8 -0
v -7 9 -0
v -1 8 -0
v -1 9 -0
v 0 8 -0
v 0 9 -0
v -8 9 -1
v -8 10 -1
v -7 9 -1
v -7 10 -1
v -2 9 -1
v -2 10 -1
v -1 9 -1
v -1 10 -1
v -8 10 -2
v -8 11 -2
v -7 10 -2
v -7 11 -2
v -3 10 -2
v -3 11 -2
v -2 10 -2
v -2 11 -2
v -8 11 -3
v -8 12 -3
v -7 11 -3
v -7 12 -3
v -4 11 -3
v -4 12 -3
v -3 11 -3
v -3 12 -3
v -8 12 -4
v -8 13 -4
v -7 12 -4
v -7 13 -4
v -5 12 -4
v -5 13 -4
v -4 12 -4
v -4 13 -4
v -8 13 -5
v -8 14 -5
v -7 13 -5
v -7 14 -5
v -6 13 -5
v -6 14 -5
v -5 13 -5
v -5 14 -5
v -8 14 -6
v -8 15 -6
v -7 14 -6
v -6 14 -6
v -6 15 -6
v -8 15 -7
v -8 16 -7
v -7 15 -7
v -7 16 -7
v -8 0 -8
v -8 16 -8
v -7 1 -8
v -7 14 -8
v -7 15 -8
v -7 16 -8
v -6 13 -8
v -6 14 -8
v -6 15 -8
v -5 12 -8
v -5 13 -8
v -5 14 -8
v -4 11 -8
v -4 12 -8
v -4 13 -8
v -3 10 -8
v -3 11 -8
v -3 12 -8
v -2 9 -8
v -2 10 -8
v -2 11 -8
v -1 8 -8
v -1 9 -8
v -1 10 -8
v 0 7 -8
v 0 8 -8
v 0 9 -8
v 1 6 -8
v 1 7 -8
v 1 8 -8
v 2 5 -8
v 2 6 -8
v 2 7 -8
v 3 4 -8
v 3 5 -8
v 3 6 -8
v 4 3 -8
v 4 4 -8
v 4 5 -8
v 5 2 -8
v 5 3 -8
v 5 4 -8
v 6 1 -8
v 6 2 -8
v 6 3 -8
v 7 1 -8
v 7 2 -8
v 8 0 -8
v 8 1 -8
v -8 0 8
v 8 0 8
v -7 0 7
v 7 0 7
v -7 0 -7
v 7 0 -7
v -8 0 -8
v 8 0 -8
v -8 1 8
v 8 1 8
v -8 1 7
v -7 1 7
v 6 1 7
v 7 1 7
v 7 1 6
v 7 1 -7
v 7 1 -8
v 8 1 -8
v -8 2 7
v -7 2 7
v 6 2 7
v 7 2 7
v -8 2 6
v -7 2 6
v 5 2 6
v 6 2 6
v 7 2 6
v 6 2 5
v 6 2 -7
v 7 2 -7
v 6 2 -8
v 7 2 -8
v -8 3 6
v -7 3 6
v 5 3 6
v 6 3 6
v -8 3 5
v -7 3 5
v 4 3 5
v 5 3 5
v 6 3 5
v 5 3 4
v 5 3 -7
v 6 3 -7
v 5 3 -8
v 6 3 -8
v -8 4 5
v -7 4 5
v 4 4 5
v 5 4 5
v -8 4 4
v -7 4 4
v 3 4 4
v 4 4 4
v 5 4 4
v 4 4 3
v 4 4 -7
v 5 4 -7
v 4 4 -8
v 5 4 -8
v -8 5 4
v -7 5 4
v 3 5 4
v 4 5 4
v -8 5 3
v -7 5 3
v 2 5 3
v 3 5 3
v 4 5 3
v 3 5 2
v 3 5 -7
v 4 5 -7
v 3 5 -8
v 4 5 -8
v -8 6 3
v -7 6 3
v 2 6 3
v 3 6 3
v -8 6 2
v -7 6 2
v 1 6 2
v 2 6 2
v 3 6 2
v 2 6 1
v 2 6 -7
v 3 6 -7
v 2 6 -8
v 3 6 -8
v -8 7 2
v -7 7 2
v 1 7 2
v 2 7 2
v -8 7 1
v -7 7 1
v 0 7 1
v 1 7 1
v 2 7 1
v 1 7 -0
v 1 7 -7
v 2 7 -7
v 1 7 -8
v 2 7 -8
v -8 8 1
v -7 8 1
v 0 8 1
v 1 8 1
v -8 8 -0
v -7 8 -0
v -1 8 -0
v 0 8 -0
v 1 8 -0
v 0 8 -1
v 0 8 -7
v 1 8 -7
v 0 8 -8
v 1 8 -8
v -8 9 -0
v -7 9 -0
v -1 9 -0
v 0 9 -0
v -8 9 -1
v -7 9 -1
v -2 9 -1
v -1 9 -1
v 0 9 -1
v -1 9 -2
v -1 9 -7
v 0 9 -7
v -1 9 -8
v 0 9 -8
v -8 10 -1
v -7 10 -1
v -2 10 -1
v -1 10 -1
v -8 10 -2
v -7 10 -2
v -3 10 -2
v -2 10 -2
v -1 10 -2
v -2 10 -3
v -2 10 -7
v -1 10 -7
v -2 10 -8
v -1 10 -8
v -8 11 -2
v -7 11 -2
v -3 11 -2
v -2 11 -2
v -8 11 -3
v -7 11 -3
v -4 11 -3
v -3 11 -3
v -2 11 -3
v -3 11 -4
v -3 11 -7
v -2 11 -7
v -3 11 -8
v -2 11 -8
v -8 12 -3
v -7 12 -3
v -4 12 -3
v -3 12 -3
v -8 12 -4
v -7 12 -4
v -5 12 -4
v -4 12 -4
v -3 12 -4
v -4 12 -5
v -4 12 -7
v -3 12 -7
v -4 12 -8
v -3 12 -8
v -8 13 -4
v -7 13 -4
v -5 13 -4
v -4 13 -4
v -8 13 -5
v -7 13 -5
v -6 13 -5
v -5 13 -5
v -4 13 -5
v -5 13 -6
v -5 13 -7
v -4 13 -7
v -5 13 -8
v -4 13 -8
v -8 14 -5
v -7 14 -5
v -6 14 -5
v -5 14 -5
v -8 14 -6
v -7 14 -6
v -6 14 -6
v -5 14 -6
v -6 14 -7
v -5 14 -7
v -6 14 -8
v -5 14 -8
v -8 15 -6
v -6 15 -6
v -8 15 -7
v -7 15 -7
v -7 15 -8
v -6 15 -8
v -8 16 -7
v -7 16 -7
v -8 16 -8
v -7 16 -8

# faces
f 3/2/1 2/2/1 1/2/1
f 4/2/1 2/2/1 3/2/1
f 5/2/1 2/2/1 4/2/1
f 6/2/1 2/2/1 5/2/1
f 7/2/1 5/2/1 4/2/1
f 8/1/1 6/1/1 5/1/1
f 8/2/1 5/2/1 7/2/1
f 9/1/1 6/1/1 8/1/1
f 10/2/1 9/2/1 8/2/1
f 11/1/1 6/1/1 9/1/1
f 11/2/1 9/2/1 10/2/1
f 12/1/1 6/1/1 11/1/1
f 13/2/1 12/2/1 11/2/1
f 14/1/1 6/1/1 12/1/1
f 14/2/1 12/2/1 13/2/1
f 15/1/1 6/1/1 14/1/1
f 16/2/1 15/2/1 14/2/1
f 17/1/1 6/1/1 15/1/1
f 17/2/1 15/2/1 16/2/1
f 18/1/1 6/1/1 17/1/1
f 19/2/1 18/2/1 17/2/1
f 20/1/1 6/1/1 18/1/1
f 20/2/1 18/2/1 19/2/1
f 21/1/1 6/1/1 20/1/1
f 22/2/1 21/2/1 20/2/1
f 23/1/1 6/1/1 21/1/1
f 23/2/1 21/2/1 22/2/1
f 24/1/1 6/1/1 23/1/1
f 25/2/1 24/2/1 23/2/1
f 26/1/1 6/1/1 24/1/1
f 26/2/1 24/2/1 25/2/1
f 27/1/1 6/1/1 26/1/1
f 28/2/1 27/2/1 26/2/1
f 29/1/1 6/1/1 27/1/1
f 29/2/1 27/2/1 28/2/1
f 30/1/1 6/1/1 29/1/1
f 31/2/1 30/2/1 29/2/1
f 32/1/1 6/1/1 30/1/1
f 32/2/1 30/2/1 31/2/1
f 33/1/1 6/1/1 32/1/1
f 34/2/1 33/2/1 32/2/1
f 35/1/1 6/1/1 33/1/1
f 35/2/1 33/2/1 34/2/1
f 36/1/1 6/1/1 35/1/1
f 37/2/1 36/2/1 35/2/1
f 38/1/1 6/1/1 36/1/1
f 38/2/1 36/2/1 37/2/1
f 39/1/1 6/1/1 38/1/1
f 40/2/1 39/2/1 38/2/1
f 41/1/1 6/1/1 39/1/1
f 41/2/1 39/2/1 40/2/1
f 42/1/1 6/1/1 41/1/1
f 43/2/1 42/2/1 41/2/1
f 44/1/1 6/1/1 42/1/1
f 44/2/1 42/2/1 43/2/1
f 45/2/1 2/2/1 6/2/1
f 45/1/1 6/1/1 44/1/1
f 46/2/1 45/2/1 44/2/1
f 47/2/1 2/2/1 45/2/1
f 47/2/1 45/2/1 46/2/1
f 48/2/1 2/2/1 47/2/1
f 49/2/1 2/2/1 48/2/1
f 50/2/2 51/2/2 52/2/2
f 52/2/2 51/2/2 53/2/2
f 54/2/2 55/2/2 57/2/2
f 55/2/2 56/2/2 57/2/2
f 57/2/2 56/2/2 58/2/2
f 59/2/2 60/2/2 63/2/2
f 60/1/2 61/1/2 64/1/2
f 63/2/2 60/2/2 64/2/2
f 61/2/2 62/2/2 65/2/2
f 64/1/2 61/1/2 65/1/2
f 65/2/2 62/2/2 66/2/2
f 67/2/2 68/2/2 71/2/2
f 68/1/2 69/1/2 72/1/2
f 71/2/2 68/2/2 72/2/2
f 69/2/2 70/2/2 73/2/2
f 72/1/2 69/1/2 73/1/2
f 73/2/2 70/2/2 74/2/2
f 75/2/2 76/2/2 79/2/2
f 76/1/2 77/1/2 80/1/2
f 79/2/2 76/2/2 80/2/2
f 77/2/2 78/2/2 81/2/2
f 80/1/2 77/1/2 81/1/2
f 81/2/2 78/2/2 82/2/2
f 83/2/2 84/2/2 87/2/2
f 84/1/2 85/1/2 88/1/2
f 87/2/2 84/2/2 88/2/2
f 85/2/2 86/2/2 89/2/2
f 88/1/2 85/1/2 89/1/2
f 89/2/2 86/2/2 90/2/2
f 91/2/2 92/2/2 95/2/2
f 92/1/2 93/1/2 96/1/2
f 95/2/2 92/2/2 96/2/2
f 93/2/2 94/2/2 97/2/2
f 96/1/2 93/1/2 97/1/2
f 97/2/2 94/2/2 98/2/2
f 99/2/2 100/2/2 103/2/2
f 100/1/2 101/1/2 104/1/2
f 103/2/2 100/2/2 104/2/2
f 101/2/2 102/2/2 105/2/2
f 104/1/2 101/1/2 105/1/2
f 105/2/2 102/2/2 106/2/2
f 107/2/2 108/2/2 111/2/2
f 108/1/2 109/1/2 112/1/2
f 111/2/2 108/2/2 112/2/2
f 109/2/2 110/2/2 113/2/2
f 112/1/2 109/1/2 113/1/2
f 113/2/2 110/2/2 114/2/2
f 115/2/2 116/2/2 119/2/2
f 116/1/2 117/1/2 120/1/2
f 119/2/2 116/2/2 120/2/2
f 117/2/2 118/2/2 121/2/2
f 120/1/2 117/1/2 121/1/2
f 121/2/2 118/2/2 122/2/2
f 123/2/2 124/2/2 127/2/2
f 124/1/2 125/1/2 128/1/2
f 127/2/2 124/2/2 128/2/2
f 125/2/2 126/2/2 129/2/2
f 128/1/2 125/1/2 129/1/2
f 129/2/2 126/2/2 130/2/2
f 131/2/2 132/2/2 135/2/2
f 132/1/2 133/1/2 136/1/2
f 135/2/2 132/2/2 136/2/2
f 133/2/2 134/2/2 137/2/2
f 136/1/2 133/1/2 137/1/2
f 137/2/2 134/2/2 138/2/2
f 139/2/2 140/2/2 143/2/2
f 140/1/2 141/1/2 144/1/2
f 143/2/2 140/2/2 144/2/2
f 141/2/2 142/2/2 145/2/2
f 144/1/2 141/1/2 145/1/2
f 145/2/2 142/2/2 146/2/2
f 147/2/2 148/2/2 151/2/2
f 148/1/2 149/1/2 152/1/2
f 151/2/2 148/2/2 152/2/2
f 149/2/2 150/2/2 153/2/2
f 152/1/2 149/1/2 153/1/2
f 153/2/2 150/2/2 154/2/2
f 155/2/2 156/2/2 159/2/2
f 156/1/2 157/1/2 160/1/2
f 159/2/2 156/2/2 160/2/2
f 157/2/2 158/2/2 161/2/2
f 160/1/2 157/1/2 161/1/2
f 161/2/2 158/2/2 162/2/2
f 163/2/2 164/2/2 165/2/2
f 165/2/2 164/2/2 166/2/2
f 169/2/3 168/2/3 167/2/3
f 170/2/3 168/2/3 169/2/3
f 173/2/3 172/2/3 171/2/3
f 174/2/3 172/2/3 173/2/3
f 175/1/3 174/1/3 173/1/3
f 176/1/3 174/1/3 175/1/3
f 177/2/3 176/2/3 175/2/3
f 178/2/3 176/2/3 177/2/3
f 181/2/3 180/2/3 179/2/3
f 182/2/3 180/2/3 181/2/3
f 183/1/3 182/1/3 181/1/3
f 184/1/3 182/1/3 183/1/3
f 185/2/3 184/2/3 183/2/3
f 186/2/3 184/2/3 185/2/3
f 189/2/3 188/2/3 187/2/3
f 190/2/3 188/2/3 189/2/3
f 191/1/3 190/1/3 189/1/3
f 192/1/3 190/1/3 191/1/3
f 193/2/3 192/2/3 191/2/3
f 194/2/3 192/2/3 193/2/3
f 197/2/3 196/2/3 195/2/3
f 198/2/3 196/2/3 197/2/3
f 199/1/3 198/1/3 197/1/3
f 200/1/3 198/1/3 199/1/3
f 201/2/3 200/2/3 199/2/3
f 202/2/3 200/2/3 201/2/3
f 205/2/3 204/2/3 203/2/3
f 206/2/3 204/2/3 205/2/3
f 207/1/3 206/1/3 205/1/3
f 208/1/3 206/1/3 207/1/3
f 209/2/3 208/2/3 207/2/3
f 210/2/3 208/2/3 209/2/3
f 213/2/3 212/2/3 211/2/3
f 214/2/3 212/2/3 213/2/3
f 215/1/3 214/1/3 213/1/3
f 216/1/3 214/1/3 215/1/3
f 217/2/3 216/2/3 215/2/3
f 218/2/3 216/2/3 217/2/3
f 221/2/3 220/2/3 219/2/3
f 222/2/3 220/2/3 221/2/3
f 223/1/3 222/1/3 221/1/3
f 224/1/3 222/1/3 223/1/3
f 225/2/3 224/2/3 223/2/3
f 226/2/3 224/2/3 225/2/3
f 229/2/3 228/2/3 227/2/3
f 230/2/3 228/2/3 229/2/3
f 231/1/3 230/1/3 229/1/3
f 232/1/3 230/1/3 231/1/3
f 233/2/3 232/2/3 231/2/3
f 234/2/3 232/2/3 233/2/3
f 237/2/3 236/2/3 235/2/3
f 238/2/3 236/2/3 237/2/3
f 239/1/3 238/1/3 237/1/3
f 240/1/3 238/1/3 239/1/3
f 241/2/3 240/2/3 239/2/3
f 242/2/3 240/2/3 241/2/3
f 245/2/3 244/2/3 243/2/3
f 246/2/3 244/2/3 245/2/3
f 247/1/3 246/1/3 245/1/3
f 248/1/3 246/1/3 247/1/3
f 249/2/3 248/2/3 247/2/3
f 250/2/3 248/2/3 249/2/3
f 253/2/3 252/2/3 251/2/3
f 254/2/3 252/2/3 253/2/3
f 255/1/3 254/1/3 253/1/3
f 256/1/3 254/1/3 255/1/3
f 257/2/3 256/2/3 255/2/3
f 258/2/3 256/2/3 257/2/3
f 261/2/3 260/2/3 259/2/3
f 262/2/3 260/2/3 261/2/3
f 263/1/3 262/1/3 261/1/3
f 264/1/3 262/1/3 263/1/3
f 265/2/3 264/2/3 263/2/3
f 266/2/3 264/2/3 265/2/3
f 269/2/3 268/2/3 267/2/3
f 270/2/3 268/2/3 269/2/3
f 271/1/3 270/1/3 269/1/3
f 272/1/3 270/1/3 271/1/3
f 273/2/3 272/2/3 271/2/3
f 274/2/3 272/2/3 273/2/3
f 277/2/3 276/2/3 275/2/3
f 278/2/3 276/2/3 277/2/3
f 279/2/3 276/2/3 278/2/3
f 282/2/3 281/2/3 280/2/3
f 283/2/3 281/2/3 282/2/3
f 284/2/4 285/2/4 286/2/4
f 286/2/4 285/2/4 287/2/4
f 287/2/4 285/2/4 288/2/4
f 288/2/4 285/2/4 289/2/4
f 286/1/4 287/1/4 290/1/4
f 287/2/4 288/2/4 291/2/4
f 290/1/4 287/1/4 291/1/4
f 291/2/4 288/2/4 292/2/4
f 286/1/4 290/1/4 293/1/4
f 290/2/4 291/2/4 294/2/4
f 293/1/4 290/1/4 294/1/4
f 294/2/4 291/2/4 295/2/4
f 286/1/4 293/1/4 296/1/4
f 293/2/4 294/2/4 297/2/4
f 296/1/4 293/1/4 297/1/4
f 297/2/4 294/2/4 298/2/4
f 286/1/4 296/1/4 299/1/4
f 296/2/4 297/2/4 300/2/4
f 299/1/4 296/1/4 300/1/4
f 300/2/4 297/2/4 301/2/4
f 286/1/4 299/1/4 302/1/4
f 299/2/4 300/2/4 303/2/4
f 302/1/4 299/1/4 303/1/4
f 303/2/4 300/2/4 304/2/4
f 286/1/4 302/1/4 305/1/4
f 302/2/4 303/2/4 306/2/4
f 305/1/4 302/1/4 306/1/4
f 306/2/4 303/2/4 307/2/4
f 286/1/4 305/1/4 308/1/4
f 305/2/4 306/2/4 309/2/4
f 308/1/4 305/1/4 309/1/4
f 309/2/4 306/2/4 310/2/4
f 286/1/4 308/1/4 311/1/4
f 308/2/4 309/2/4 312/2/4
f 311/1/4 308/1/4 312/1/4
f 312/2/4 309/2/4 313/2/4
f 286/1/4 311/1/4 314/1/4
f 311/2/4 312/2/4 315/2/4
f 314/1/4 311/1/4 315/1/4
f 315/2/4 312/2/4 316/2/4
f 286/1/4 314/1/4 317/1/4
f 314/2/4 315/2/4 318/2/4
f 317/1/4 314/1/4 318/1/4
f 318/2/4 315/2/4 319/2/4
f 286/1/4 317/1/4 320/1/4
f 317/2/4 318/2/4 321/2/4
f 320/1/4 317/1/4 321/1/4
f 321/2/4 318/2/4 322/2/4
f 286/1/4 320/1/4 323/1/4
f 320/2/4 321/2/4 324/2/4
f 323/1/4 320/1/4 324/1/4
f 324/2/4 321/2/4 325/2/4
f 284/2/4 286/2/4 326/2/4
f 286/1/4 323/1/4 326/1/4
f 323/2/4 324/2/4 327/2/4
f 326/1/4 323/1/4 327/1/4
f 327/2/4 324/2/4 328/2/4
f 284/2/4 326/2/4 329/2/4
f 326/2/4 327/2/4 329/2/4
f 329/2/4 327/2/4 330/2/4
f 284/2/4 329/2/4 331/2/4
f 331/2/4 329/2/4 332/2/4
f 335/2/5 334/2/5 333/2/5
f 336/2/5 334/2/5 335/2/5
f 337/2/5 335/2/5 333/2/5
f 337/1/5 336/1/5 335/1/5
f 338/2/5 334/2/5 336/2/5
f 338/1/5 336/1/5 337/1/5
f 339/2/5 337/2/5 333/2/5
f 339/2/5 338/2/5 337/2/5
f 340/2/5 334/2/5 338/2/5
f 340/2/5 338/2/5 339/2/5
f 341/2/6 342/2/6 343/2/6
f 343/2/6 342/2/6 344/2/6
f 344/2/6 342/2/6 345/2/6
f 345/2/6 342/2/6 346/2/6
f 346/2/6 342/2/6 347/2/6
f 347/2/6 342/2/6 348/2/6
f 348/2/6 342/2/6 349/2/6
f 349/2/6 342/2/6 350/2/6
f 351/2/6 352/2/6 355/2/6
f 352/1/6 353/1/6 356/1/6
f 355/2/6 352/2/6 356/2/6
f 356/1/6 353/1/6 357/1/6
f 353/2/6 354/2/6 358/2/6
f 357/1/6 353/1/6 358/1/6
f 358/2/6 354/2/6 359/2/6
f 358/1/6 359/1/6 360/1/6
f 360/1/6 359/1/6 361/1/6
f 361/1/6 359/1/6 362/1/6
f 361/2/6 362/2/6 363/2/6
f 363/2/6 362/2/6 364/2/6
f 365/2/6 366/2/6 369/2/6
f 366/1/6 367/1/6 370/1/6
f 369/2/6 366/2/6 370/2/6
f 370/1/6 367/1/6 371/1/6
f 367/2/6 368/2/6 372/2/6
f 371/1/6 367/1/6 372/1/6
f 372/2/6 368/2/6 373/2/6
f 372/1/6 373/1/6 374/1/6
f 374/1/6 373/1/6 375/1/6
f 375/1/6 373/1/6 376/1/6
f 375/2/6 376/2/6 377/2/6
f 377/2/6 376/2/6 378/2/6
f 379/2/6 380/2/6 383/2/6
f 380/1/6 381/1/6 384/1/6
f 383/2/6 380/2/6 384/2/6
f 384/1/6 381/1/6 385/1/6
f 381/2/6 382/2/6 386/2/6
f 385/1/6 381/1/6 386/1/6
f 386/2/6 382/2/6 387/2/6
f 386/1/6 387/1/6 388/1/6
f 388/1/6 387/1/6 389/1/6
f 389/1/6 387/1/6 390/1/6
f 389/2/6 390/2/6 391/2/6
f 391/2/6 390/2/6 392/2/6
f 393/2/6 394/2/6 397/2/6
f 394/1/6 395/1/6 398/1/6
f 397/2/6 394/2/6 398/2/6
f 398/1/6 395/1/6 399/1/6
f 395/2/6 396/2/6 400/2/6
f 399/1/6 395/1/6 400/1/6
f 400/2/6 396/2/6 401/2/6
f 400/1/6 401/1/6 402/1/6
f 402/1/6 401/1/6 403/1/6
f 403/1/6 401/1/6 404/1/6
f 403/2/6 404/2/6 405/2/6
f 405/2/6 404/2/6 406/2/6
f 407/2/6 408/2/6 411/2/6
f 408/1/6 409/1/6 412/1/6
f 411/2/6 408/2/6 412/2/6
f 412/1/6 409/1/6 413/1/6
f 409/2/6 410/2/6 414/2/6
f 413/1/6 409/1/6 414/1/6
f 414/2/6 410/2/6 415/2/6
f 414/1/6 415/1/6 416/1/6
f 416/1/6 415/1/6 417/1/6
f 417/1/6 415/1/6 418/1/6
f 417/2/6 418/2/6 419/2/6
f 419/2/6 418/2/6 420/2/6
f 421/2/6 422/2/6 425/2/6
f 422/1/6 423/1/6 426/1/6
f 425/2/6 422/2/6 426/2/6
f 426/1/6 423/1/6 427/1/6
f 423/2/6 424/2/6 428/2/6
f 427/1/6 423/1/6 428/1/6
f 428/2/6 424/2/6 429/2/6
f 428/1/6 429/1/6 430/1/6
f 430/1/6 429/1/6 431/1/6
f 431/1/6 429/1/6 432/1/6
f 431/2/6 432/2/6 433/2/6
f 433/2/6 432/2/6 434/2/6
f 435/2/6 436/2/6 439/2/6
f 436/1/6 437/1/6 440/1/6
f 439/2/6 436/2/6 440/2/6
f 440/1/6 437/1/6 441/1/6
f 437/2/6 438/2/6 442/2/6
f 441/1/6 437/1/6 442/1/6
f 442/2/6 438/2/6 443/2/6
f 442/1/6 443/1/6 444/1/6
f 444/1/6 443/1/6 445/1/6
f 445/1/6 443/1/6 446/1/6
f 445/2/6 446/2/6 447/2/6
f 447/2/6 446/2/6 448/2/6
f 449/2/6 450/2/6 453/2/6
f 450/1/6 451/1/6 454/1/6
f 453/2/6 450/2/6 454/2/6
f 454/1/6 451/1/6 455/1/6
f 451/2/6 452/2/6 456/2/6
f 455/1/6 451/1/6 456/1/6
f 456/2/6 452/2/6 457/2/6
f 456/1/6 457/1/6 458/1/6
f 458/1/6 457/1/6 459/1/6
f 459/1/6 457/1/6 460/1/6
f 459/2/6 460/2/6 461/2/6
f 461/2/6 460/2/6 462/2/6
f 463/2/6 464/2/6 467/2/6
f 464/1/6 465/1/6 468/1/6
f 467/2/6 464/2/6 468/2/6
f 468/1/6 465/1/6 469/1/6
f 465/2/6 466/2/6 470/2/6
f 469/1/6 465/1/6 470/1/6
f 470/2/6 466/2/6 471/2/6
f 470/1/6 471/1/6 472/1/6
f 472/1/6 471/1/6 473/1/6
f 473/1/6 471/1/6 474/1/6
f 473/2/6 474/2/6 475/2/6
f 475/2/6 474/2/6 476/2/6
f 477/2/6 478/2/6 481/2/6
f 478/1/6 479/1/6 482/1/6
f 481/2/6 478/2/6 482/2/6
f 482/1/6 479/1/6 483/1/6
f 479/2/6 480/2/6 484/2/6
f 483/1/6 479/1/6 484/1/6
f 484/2/6 480/2/6 485/2/6
f 484/1/6 485/1/6 486/1/6
f 486/1/6 485/1/6 487/1/6
f 487/1/6 485/1/6 488/1/6
f 487/2/6 488/2/6 489/2/6
f 489/2/6 488/2/6 490/2/6
f 491/2/6 492/2/6 495/2/6
f 492/1/6 493/1/6 496/1/6
f 495/2/6 492/2/6 496/2/6
f 496/1/6 493/1/6 497/1/6
f 493/2/6 494/2/6 498/2/6
f 497/1/6 493/1/6 498/1/6
f 498/2/6 494/2/6 499/2/6
f 498/1/6 499/1/6 500/1/6
f 500/1/6 499/1/6 501/1/6
f 501/1/6 499/1/6 502/1/6
f 501/2/6 502/2/6 503/2/6
f 503/2/6 502/2/6 504/2/6
f 505/2/6 506/2/6 509/2/6
f 506/1/6 507/1/6 510/1/6
f 509/2/6 506/2/6 510/2/6
f 510/1/6 507/1/6 511/1/6
f 507/2/6 508/2/6 512/2/6
f 511/1/6 507/1/6 512/1/6
f 512/2/6 508/2/6 513/2/6
f 512/1/6 513/1/6 514/1/6
f 514/1/6 513/1/6 515/1/6
f 515/1/6 513/1/6 516/1/6
f 515/2/6 516/2/6 517/2/6
f 517/2/6 516/2/6 518/2/6
f 519/2/6 520/2/6 523/2/6
f 520/1/6 521/1/6 524/1/6
f 523/2/6 520/2/6 524/2/6
f 521/2/6 522/2/6 525/2/6
f 524/1/6 521/1/6 525/1/6
f 525/2/6 522/2/6 526/2/6
f 525/1/6 526/1/6 527/1/6
f 527/1/6 526/1/6 528/1/6
f 527/2/6 528/2/6 529/2/6
f 529/2/6 528/2/6 530/2/6
f 531/2/6 532/2/6 533/2/6
f 533/2/6 532/2/6 534/2/6
f 534/2/6 532/2/6 535/2/6
f 535/2/6 532/2/6 536/2/6
f 537/2/6 538/2/6 539/2/6
f 539/2/6 538/2/6 540/2/6
