# MagicaVoxel @ Ephtracy

# material
mtllib slope dual edge sqr.mtl
usemtl palette

# normals
vn -1 0 0
vn 1 0 0
vn 0 0 1
vn 0 0 -1
vn 0 -1 0
vn 0 1 0

# texcoords
vt 0.0175781 0.5
vt 0.958984 0.5
vt 0.994141 0.5

# verts
v -8 0 8
v -8 0 -8
v -8 1 8
v -8 1 7
v -8 1 6
v -8 1 -7
v -8 2 7
v -8 2 6
v -8 2 5
v -8 3 6
v -8 3 5
v -8 3 4
v -8 4 5
v -8 4 4
v -8 4 3
v -8 5 4
v -8 5 3
v -8 5 2
v -8 6 3
v -8 6 2
v -8 6 1
v -8 7 2
v -8 7 1
v -8 7 -0
v -8 8 1
v -8 8 -0
v -8 8 -1
v -8 9 -0
v -8 9 -1
v -8 9 -2
v -8 10 -1
v -8 10 -2
v -8 10 -3
v -8 11 -2
v -8 11 -3
v -8 11 -4
v -8 12 -3
v -8 12 -4
v -8 12 -5
v -8 13 -4
v -8 13 -5
v -8 13 -6
v -8 14 -5
v -8 14 -6
v -8 14 -7
v -8 15 -6
v -8 15 -7
v -8 16 -7
v -8 16 -8
v 8 0 8
v 8 0 -8
v 8 1 8
v 8 1 7
v 8 1 6
v 8 1 -7
v 8 2 7
v 8 2 6
v 8 2 5
v 8 3 6
v 8 3 5
v 8 3 4
v 8 4 5
v 8 4 4
v 8 4 3
v 8 5 4
v 8 5 3
v 8 5 2
v 8 6 3
v 8 6 2
v 8 6 1
v 8 7 2
v 8 7 1
v 8 7 -0
v 8 8 1
v 8 8 -0
v 8 8 -1
v 8 9 -0
v 8 9 -1
v 8 9 -2
v 8 10 -1
v 8 10 -2
v 8 10 -3
v 8 11 -2
v 8 11 -3
v 8 11 -4
v 8 12 -3
v 8 12 -4
v 8 12 -5
v 8 13 -4
v 8 13 -5
v 8 13 -6
v 8 14 -5
v 8 14 -6
v 8 14 -7
v 8 15 -6
v 8 15 -7
v 8 16 -7
v 8 16 -8
v -8 0 8
v -8 1 8
v 8 0 8
v 8 1 8
v -8 1 7
v -8 2 7
v -6 1 7
v -6 2 7
v 7 1 7
v 7 2 7
v 8 1 7
v 8 2 7
v -8 2 6
v -8 3 6
v -7 2 6
v -7 3 6
v -6 2 6
v -6 3 6
v -5 2 6
v -5 3 6
v 7 2 6
v 7 3 6
v 8 2 6
v 8 3 6
v -8 3 5
v -8 4 5
v -7 3 5
v -7 4 5
v -6 3 5
v -5 3 5
v -5 4 5
v -4 3 5
v -4 4 5
v 7 3 5
v 7 4 5
v 8 3 5
v 8 4 5
v -8 4 4
v -8 5 4
v -7 4 4
v -7 5 4
v -5 4 4
v -4 4 4
v -4 5 4
v -3 4 4
v -3 5 4
v 7 4 4
v 7 5 4
v 8 4 4
v 8 5 4
v -8 5 3
v -8 6 3
v -7 5 3
v -7 6 3
v -4 5 3
v -3 5 3
v -3 6 3
v -2 5 3
v -2 6 3
v 7 5 3
v 7 6 3
v 8 5 3
v 8 6 3
v -8 6 2
v -8 7 2
v -7 6 2
v -7 7 2
v -3 6 2
v -2 6 2
v -2 7 2
v -1 6 2
v -1 7 2
v 7 6 2
v 7 7 2
v 8 6 2
v 8 7 2
v -8 7 1
v -8 8 1
v -7 7 1
v -7 8 1
v -2 7 1
v -1 7 1
v -1 8 1
v 0 7 1
v 0 8 1
v 7 7 1
v 7 8 1
v 8 7 1
v 8 8 1
v -8 8 -0
v -8 9 -0
v -7 8 -0
v -7 9 -0
v -1 8 -0
v 0 8 -0
v 0 9 -0
v 1 8 -0
v 1 9 -0
v 7 8 -0
v 7 9 -0
v 8 8 -0
v 8 9 -0
v -8 9 -1
v -8 10 -1
v -7 9 -1
v -7 10 -1
v 0 9 -1
v 1 9 -1
v 1 10 -1
v 2 9 -1
v 2 10 -1
v 7 9 -1
v 7 10 -1
v 8 9 -1
v 8 10 -1
v -8 10 -2
v -8 11 -2
v -7 10 -2
v -7 11 -2
v 1 10 -2
v 2 10 -2
v 2 11 -2
v 3 10 -2
v 3 11 -2
v 7 10 -2
v 7 11 -2
v 8 10 -2
v 8 11 -2
v -8 11 -3
v -8 12 -3
v -7 11 -3
v -7 12 -3
v 2 11 -3
v 3 11 -3
v 3 12 -3
v 4 11 -3
v 4 12 -3
v 7 11 -3
v 7 12 -3
v 8 11 -3
v 8 12 -3
v -8 12 -4
v -8 13 -4
v -7 12 -4
v -7 13 -4
v 3 12 -4
v 4 12 -4
v 4 13 -4
v 5 12 -4
v 5 13 -4
v 7 12 -4
v 7 13 -4
v 8 12 -4
v 8 13 -4
v -8 13 -5
v -8 14 -5
v -7 13 -5
v -7 14 -5
v 4 13 -5
v 5 13 -5
v 5 14 -5
v 6 13 -5
v 6 14 -5
v 7 13 -5
v 7 14 -5
v 8 13 -5
v 8 14 -5
v -8 14 -6
v -8 15 -6
v -7 14 -6
v -7 15 -6
v 5 14 -6
v 6 14 -6
v 6 15 -6
v 7 14 -6
v 8 14 -6
v 8 15 -6
v -8 15 -7
v -8 16 -7
v -7 15 -7
v 6 15 -7
v 8 15 -7
v 8 16 -7
v -8 0 -8
v -8 16 -8
v -7 2 -8
v -7 15 -8
v -6 1 -8
v -6 2 -8
v -6 3 -8
v -5 2 -8
v -5 3 -8
v -5 4 -8
v -4 3 -8
v -4 4 -8
v -4 5 -8
v -3 4 -8
v -3 5 -8
v -3 6 -8
v -2 5 -8
v -2 6 -8
v -2 7 -8
v -1 6 -8
v -1 7 -8
v -1 8 -8
v 0 7 -8
v 0 8 -8
v 0 9 -8
v 1 8 -8
v 1 9 -8
v 1 10 -8
v 2 9 -8
v 2 10 -8
v 2 11 -8
v 3 10 -8
v 3 11 -8
v 3 12 -8
v 4 11 -8
v 4 12 -8
v 4 13 -8
v 5 12 -8
v 5 13 -8
v 5 14 -8
v 6 13 -8
v 6 14 -8
v 6 15 -8
v 7 1 -8
v 7 14 -8
v 8 0 -8
v 8 16 -8
v -8 0 8
v 8 0 8
v -7 0 7
v 7 0 7
v -7 0 -7
v 7 0 -7
v -8 0 -8
v 8 0 -8
v -8 1 8
v 8 1 8
v -8 1 7
v -6 1 7
v 7 1 7
v 8 1 7
v -8 2 7
v -6 2 7
v 7 2 7
v 8 2 7
v -8 2 6
v -7 2 6
v -6 2 6
v -5 2 6
v 7 2 6
v 8 2 6
v -8 3 6
v -7 3 6
v -6 3 6
v -5 3 6
v 7 3 6
v 8 3 6
v -8 3 5
v -7 3 5
v -6 3 5
v -5 3 5
v -4 3 5
v 7 3 5
v 8 3 5
v -8 4 5
v -7 4 5
v -5 4 5
v -4 4 5
v 7 4 5
v 8 4 5
v -8 4 4
v -7 4 4
v -5 4 4
v -4 4 4
v -3 4 4
v 7 4 4
v 8 4 4
v -8 5 4
v -7 5 4
v -4 5 4
v -3 5 4
v 7 5 4
v 8 5 4
v -8 5 3
v -7 5 3
v -4 5 3
v -3 5 3
v -2 5 3
v 7 5 3
v 8 5 3
v -8 6 3
v -7 6 3
v -3 6 3
v -2 6 3
v 7 6 3
v 8 6 3
v -8 6 2
v -7 6 2
v -3 6 2
v -2 6 2
v -1 6 2
v 7 6 2
v 8 6 2
v -8 7 2
v -7 7 2
v -2 7 2
v -1 7 2
v 7 7 2
v 8 7 2
v -8 7 1
v -7 7 1
v -2 7 1
v -1 7 1
v 0 7 1
v 7 7 1
v 8 7 1
v -8 8 1
v -7 8 1
v -1 8 1
v 0 8 1
v 7 8 1
v 8 8 1
v -8 8 -0
v -7 8 -0
v -1 8 -0
v 0 8 -0
v 1 8 -0
v 7 8 -0
v 8 8 -0
v -8 9 -0
v -7 9 -0
v 0 9 -0
v 1 9 -0
v 7 9 -0
v 8 9 -0
v -8 9 -1
v -7 9 -1
v 0 9 -1
v 1 9 -1
v 2 9 -1
v 7 9 -1
v 8 9 -1
v -8 10 -1
v -7 10 -1
v 1 10 -1
v 2 10 -1
v 7 10 -1
v 8 10 -1
v -8 10 -2
v -7 10 -2
v 1 10 -2
v 2 10 -2
v 3 10 -2
v 7 10 -2
v 8 10 -2
v -8 11 -2
v -7 11 -2
v 2 11 -2
v 3 11 -2
v 7 11 -2
v 8 11 -2
v -8 11 -3
v -7 11 -3
v 2 11 -3
v 3 11 -3
v 4 11 -3
v 7 11 -3
v 8 11 -3
v -8 12 -3
v -7 12 -3
v 3 12 -3
v 4 12 -3
v 7 12 -3
v 8 12 -3
v -8 12 -4
v -7 12 -4
v 3 12 -4
v 4 12 -4
v 5 12 -4
v 7 12 -4
v 8 12 -4
v -8 13 -4
v -7 13 -4
v 4 13 -4
v 5 13 -4
v 7 13 -4
v 8 13 -4
v -8 13 -5
v -7 13 -5
v 4 13 -5
v 5 13 -5
v 6 13 -5
v 7 13 -5
v 8 13 -5
v -8 14 -5
v -7 14 -5
v 5 14 -5
v 6 14 -5
v 7 14 -5
v 8 14 -5
v -8 14 -6
v -7 14 -6
v 5 14 -6
v 6 14 -6
v 7 14 -6
v 8 14 -6
v -8 15 -6
v -7 15 -6
v 6 15 -6
v 8 15 -6
v -8 15 -7
v -7 15 -7
v 6 15 -7
v 8 15 -7
v -8 16 -7
v 8 16 -7
v -8 16 -8
v 8 16 -8

# faces
f 3/3/1 2/3/1 1/3/1
f 4/3/1 2/3/1 3/3/1
f 5/3/1 2/3/1 4/3/1
f 6/3/1 2/3/1 5/3/1
f 7/3/1 5/3/1 4/3/1
f 8/2/1 6/2/1 5/2/1
f 8/3/1 5/3/1 7/3/1
f 9/2/1 6/2/1 8/2/1
f 10/3/1 9/3/1 8/3/1
f 11/2/1 6/2/1 9/2/1
f 11/3/1 9/3/1 10/3/1
f 12/2/1 6/2/1 11/2/1
f 13/3/1 12/3/1 11/3/1
f 14/2/1 6/2/1 12/2/1
f 14/3/1 12/3/1 13/3/1
f 15/2/1 6/2/1 14/2/1
f 16/3/1 15/3/1 14/3/1
f 17/2/1 6/2/1 15/2/1
f 17/3/1 15/3/1 16/3/1
f 18/2/1 6/2/1 17/2/1
f 19/3/1 18/3/1 17/3/1
f 20/2/1 6/2/1 18/2/1
f 20/3/1 18/3/1 19/3/1
f 21/2/1 6/2/1 20/2/1
f 22/3/1 21/3/1 20/3/1
f 23/2/1 6/2/1 21/2/1
f 23/3/1 21/3/1 22/3/1
f 24/2/1 6/2/1 23/2/1
f 25/3/1 24/3/1 23/3/1
f 26/2/1 6/2/1 24/2/1
f 26/3/1 24/3/1 25/3/1
f 27/2/1 6/2/1 26/2/1
f 28/3/1 27/3/1 26/3/1
f 29/2/1 6/2/1 27/2/1
f 29/3/1 27/3/1 28/3/1
f 30/2/1 6/2/1 29/2/1
f 31/3/1 30/3/1 29/3/1
f 32/2/1 6/2/1 30/2/1
f 32/3/1 30/3/1 31/3/1
f 33/2/1 6/2/1 32/2/1
f 34/3/1 33/3/1 32/3/1
f 35/2/1 6/2/1 33/2/1
f 35/3/1 33/3/1 34/3/1
f 36/2/1 6/2/1 35/2/1
f 37/3/1 36/3/1 35/3/1
f 38/2/1 6/2/1 36/2/1
f 38/3/1 36/3/1 37/3/1
f 39/2/1 6/2/1 38/2/1
f 40/3/1 39/3/1 38/3/1
f 41/2/1 6/2/1 39/2/1
f 41/3/1 39/3/1 40/3/1
f 42/2/1 6/2/1 41/2/1
f 43/3/1 42/3/1 41/3/1
f 44/2/1 6/2/1 42/2/1
f 44/3/1 42/3/1 43/3/1
f 45/3/1 2/3/1 6/3/1
f 45/2/1 6/2/1 44/2/1
f 46/3/1 45/3/1 44/3/1
f 47/3/1 2/3/1 45/3/1
f 47/3/1 45/3/1 46/3/1
f 48/3/1 2/3/1 47/3/1
f 49/3/1 2/3/1 48/3/1
f 50/3/2 51/3/2 52/3/2
f 52/3/2 51/3/2 53/3/2
f 53/3/2 51/3/2 54/3/2
f 54/3/2 51/3/2 55/3/2
f 53/3/2 54/3/2 56/3/2
f 54/1/2 55/1/2 57/1/2
f 56/3/2 54/3/2 57/3/2
f 57/1/2 55/1/2 58/1/2
f 57/3/2 58/3/2 59/3/2
f 58/1/2 55/1/2 60/1/2
f 59/3/2 58/3/2 60/3/2
f 60/1/2 55/1/2 61/1/2
f 60/3/2 61/3/2 62/3/2
f 61/1/2 55/1/2 63/1/2
f 62/3/2 61/3/2 63/3/2
f 63/1/2 55/1/2 64/1/2
f 63/3/2 64/3/2 65/3/2
f 64/1/2 55/1/2 66/1/2
f 65/3/2 64/3/2 66/3/2
f 66/1/2 55/1/2 67/1/2
f 66/3/2 67/3/2 68/3/2
f 67/1/2 55/1/2 69/1/2
f 68/3/2 67/3/2 69/3/2
f 69/1/2 55/1/2 70/1/2
f 69/3/2 70/3/2 71/3/2
f 70/1/2 55/1/2 72/1/2
f 71/3/2 70/3/2 72/3/2
f 72/1/2 55/1/2 73/1/2
f 72/3/2 73/3/2 74/3/2
f 73/1/2 55/1/2 75/1/2
f 74/3/2 73/3/2 75/3/2
f 75/1/2 55/1/2 76/1/2
f 75/3/2 76/3/2 77/3/2
f 76/1/2 55/1/2 78/1/2
f 77/3/2 76/3/2 78/3/2
f 78/1/2 55/1/2 79/1/2
f 78/3/2 79/3/2 80/3/2
f 79/1/2 55/1/2 81/1/2
f 80/3/2 79/3/2 81/3/2
f 81/1/2 55/1/2 82/1/2
f 81/3/2 82/3/2 83/3/2
f 82/1/2 55/1/2 84/1/2
f 83/3/2 82/3/2 84/3/2
f 84/1/2 55/1/2 85/1/2
f 84/3/2 85/3/2 86/3/2
f 85/1/2 55/1/2 87/1/2
f 86/3/2 85/3/2 87/3/2
f 87/1/2 55/1/2 88/1/2
f 87/3/2 88/3/2 89/3/2
f 88/1/2 55/1/2 90/1/2
f 89/3/2 88/3/2 90/3/2
f 90/1/2 55/1/2 91/1/2
f 90/3/2 91/3/2 92/3/2
f 91/1/2 55/1/2 93/1/2
f 92/3/2 91/3/2 93/3/2
f 55/3/2 51/3/2 94/3/2
f 93/1/2 55/1/2 94/1/2
f 93/3/2 94/3/2 95/3/2
f 94/3/2 51/3/2 96/3/2
f 95/3/2 94/3/2 96/3/2
f 96/3/2 51/3/2 97/3/2
f 97/3/2 51/3/2 98/3/2
f 101/3/3 100/3/3 99/3/3
f 102/3/3 100/3/3 101/3/3
f 105/3/3 104/3/3 103/3/3
f 106/3/3 104/3/3 105/3/3
f 107/1/3 106/1/3 105/1/3
f 108/1/3 106/1/3 107/1/3
f 109/3/3 108/3/3 107/3/3
f 110/3/3 108/3/3 109/3/3
f 113/3/3 112/3/3 111/3/3
f 114/3/3 112/3/3 113/3/3
f 115/2/3 114/2/3 113/2/3
f 116/2/3 114/2/3 115/2/3
f 117/3/3 116/3/3 115/3/3
f 118/3/3 116/3/3 117/3/3
f 119/1/3 118/1/3 117/1/3
f 120/1/3 118/1/3 119/1/3
f 121/3/3 120/3/3 119/3/3
f 122/3/3 120/3/3 121/3/3
f 125/3/3 124/3/3 123/3/3
f 126/3/3 124/3/3 125/3/3
f 127/2/3 126/2/3 125/2/3
f 128/2/3 126/2/3 127/2/3
f 129/2/3 126/2/3 128/2/3
f 130/3/3 129/3/3 128/3/3
f 131/3/3 129/3/3 130/3/3
f 132/1/3 131/1/3 130/1/3
f 133/1/3 131/1/3 132/1/3
f 134/3/3 133/3/3 132/3/3
f 135/3/3 133/3/3 134/3/3
f 138/3/3 137/3/3 136/3/3
f 139/3/3 137/3/3 138/3/3
f 140/2/3 139/2/3 138/2/3
f 141/2/3 139/2/3 140/2/3
f 142/2/3 139/2/3 141/2/3
f 143/3/3 142/3/3 141/3/3
f 144/3/3 142/3/3 143/3/3
f 145/1/3 144/1/3 143/1/3
f 146/1/3 144/1/3 145/1/3
f 147/3/3 146/3/3 145/3/3
f 148/3/3 146/3/3 147/3/3
f 151/3/3 150/3/3 149/3/3
f 152/3/3 150/3/3 151/3/3
f 153/2/3 152/2/3 151/2/3
f 154/2/3 152/2/3 153/2/3
f 155/2/3 152/2/3 154/2/3
f 156/3/3 155/3/3 154/3/3
f 157/3/3 155/3/3 156/3/3
f 158/1/3 157/1/3 156/1/3
f 159/1/3 157/1/3 158/1/3
f 160/3/3 159/3/3 158/3/3
f 161/3/3 159/3/3 160/3/3
f 164/3/3 163/3/3 162/3/3
f 165/3/3 163/3/3 164/3/3
f 166/2/3 165/2/3 164/2/3
f 167/2/3 165/2/3 166/2/3
f 168/2/3 165/2/3 167/2/3
f 169/3/3 168/3/3 167/3/3
f 170/3/3 168/3/3 169/3/3
f 171/1/3 170/1/3 169/1/3
f 172/1/3 170/1/3 171/1/3
f 173/3/3 172/3/3 171/3/3
f 174/3/3 172/3/3 173/3/3
f 177/3/3 176/3/3 175/3/3
f 178/3/3 176/3/3 177/3/3
f 179/2/3 178/2/3 177/2/3
f 180/2/3 178/2/3 179/2/3
f 181/2/3 178/2/3 180/2/3
f 182/3/3 181/3/3 180/3/3
f 183/3/3 181/3/3 182/3/3
f 184/1/3 183/1/3 182/1/3
f 185/1/3 183/1/3 184/1/3
f 186/3/3 185/3/3 184/3/3
f 187/3/3 185/3/3 186/3/3
f 190/3/3 189/3/3 188/3/3
f 191/3/3 189/3/3 190/3/3
f 192/2/3 191/2/3 190/2/3
f 193/2/3 191/2/3 192/2/3
f 194/2/3 191/2/3 193/2/3
f 195/3/3 194/3/3 193/3/3
f 196/3/3 194/3/3 195/3/3
f 197/1/3 196/1/3 195/1/3
f 198/1/3 196/1/3 197/1/3
f 199/3/3 198/3/3 197/3/3
f 200/3/3 198/3/3 199/3/3
f 203/3/3 202/3/3 201/3/3
f 204/3/3 202/3/3 203/3/3
f 205/2/3 204/2/3 203/2/3
f 206/2/3 204/2/3 205/2/3
f 207/2/3 204/2/3 206/2/3
f 208/3/3 207/3/3 206/3/3
f 209/3/3 207/3/3 208/3/3
f 210/1/3 209/1/3 208/1/3
f 211/1/3 209/1/3 210/1/3
f 212/3/3 211/3/3 210/3/3
f 213/3/3 211/3/3 212/3/3
f 216/3/3 215/3/3 214/3/3
f 217/3/3 215/3/3 216/3/3
f 218/2/3 217/2/3 216/2/3
f 219/2/3 217/2/3 218/2/3
f 220/2/3 217/2/3 219/2/3
f 221/3/3 220/3/3 219/3/3
f 222/3/3 220/3/3 221/3/3
f 223/1/3 222/1/3 221/1/3
f 224/1/3 222/1/3 223/1/3
f 225/3/3 224/3/3 223/3/3
f 226/3/3 224/3/3 225/3/3
f 229/3/3 228/3/3 227/3/3
f 230/3/3 228/3/3 229/3/3
f 231/2/3 230/2/3 229/2/3
f 232/2/3 230/2/3 231/2/3
f 233/2/3 230/2/3 232/2/3
f 234/3/3 233/3/3 232/3/3
f 235/3/3 233/3/3 234/3/3
f 236/1/3 235/1/3 234/1/3
f 237/1/3 235/1/3 236/1/3
f 238/3/3 237/3/3 236/3/3
f 239/3/3 237/3/3 238/3/3
f 242/3/3 241/3/3 240/3/3
f 243/3/3 241/3/3 242/3/3
f 244/2/3 243/2/3 242/2/3
f 245/2/3 243/2/3 244/2/3
f 246/2/3 243/2/3 245/2/3
f 247/3/3 246/3/3 245/3/3
f 248/3/3 246/3/3 247/3/3
f 249/1/3 248/1/3 247/1/3
f 250/1/3 248/1/3 249/1/3
f 251/3/3 250/3/3 249/3/3
f 252/3/3 250/3/3 251/3/3
f 255/3/3 254/3/3 253/3/3
f 256/3/3 254/3/3 255/3/3
f 257/2/3 256/2/3 255/2/3
f 258/2/3 256/2/3 257/2/3
f 259/2/3 256/2/3 258/2/3
f 260/3/3 259/3/3 258/3/3
f 261/3/3 259/3/3 260/3/3
f 262/1/3 261/1/3 260/1/3
f 263/1/3 261/1/3 262/1/3
f 264/3/3 263/3/3 262/3/3
f 265/3/3 263/3/3 264/3/3
f 268/3/3 267/3/3 266/3/3
f 269/3/3 267/3/3 268/3/3
f 270/2/3 269/2/3 268/2/3
f 271/2/3 269/2/3 270/2/3
f 272/2/3 269/2/3 271/2/3
f 273/3/3 272/3/3 271/3/3
f 274/3/3 272/3/3 273/3/3
f 275/3/3 272/3/3 274/3/3
f 278/3/3 277/3/3 276/3/3
f 279/3/3 277/3/3 278/3/3
f 280/3/3 277/3/3 279/3/3
f 281/3/3 277/3/3 280/3/3
f 282/3/4 283/3/4 284/3/4
f 284/3/4 283/3/4 285/3/4
f 282/3/4 284/3/4 286/3/4
f 284/2/4 285/2/4 287/2/4
f 286/3/4 284/3/4 287/3/4
f 287/2/4 285/2/4 288/2/4
f 286/1/4 287/1/4 289/1/4
f 287/3/4 288/3/4 289/3/4
f 288/2/4 285/2/4 290/2/4
f 289/3/4 288/3/4 290/3/4
f 290/2/4 285/2/4 291/2/4
f 289/1/4 290/1/4 292/1/4
f 290/3/4 291/3/4 292/3/4
f 291/2/4 285/2/4 293/2/4
f 292/3/4 291/3/4 293/3/4
f 293/2/4 285/2/4 294/2/4
f 292/1/4 293/1/4 295/1/4
f 293/3/4 294/3/4 295/3/4
f 294/2/4 285/2/4 296/2/4
f 295/3/4 294/3/4 296/3/4
f 296/2/4 285/2/4 297/2/4
f 295/1/4 296/1/4 298/1/4
f 296/3/4 297/3/4 298/3/4
f 297/2/4 285/2/4 299/2/4
f 298/3/4 297/3/4 299/3/4
f 299/2/4 285/2/4 300/2/4
f 298/1/4 299/1/4 301/1/4
f 299/3/4 300/3/4 301/3/4
f 300/2/4 285/2/4 302/2/4
f 301/3/4 300/3/4 302/3/4
f 302/2/4 285/2/4 303/2/4
f 301/1/4 302/1/4 304/1/4
f 302/3/4 303/3/4 304/3/4
f 303/2/4 285/2/4 305/2/4
f 304/3/4 303/3/4 305/3/4
f 305/2/4 285/2/4 306/2/4
f 304/1/4 305/1/4 307/1/4
f 305/3/4 306/3/4 307/3/4
f 306/2/4 285/2/4 308/2/4
f 307/3/4 306/3/4 308/3/4
f 308/2/4 285/2/4 309/2/4
f 307/1/4 308/1/4 310/1/4
f 308/3/4 309/3/4 310/3/4
f 309/2/4 285/2/4 311/2/4
f 310/3/4 309/3/4 311/3/4
f 311/2/4 285/2/4 312/2/4
f 310/1/4 311/1/4 313/1/4
f 311/3/4 312/3/4 313/3/4
f 312/2/4 285/2/4 314/2/4
f 313/3/4 312/3/4 314/3/4
f 314/2/4 285/2/4 315/2/4
f 313/1/4 314/1/4 316/1/4
f 314/3/4 315/3/4 316/3/4
f 315/2/4 285/2/4 317/2/4
f 316/3/4 315/3/4 317/3/4
f 317/2/4 285/2/4 318/2/4
f 316/1/4 317/1/4 319/1/4
f 317/3/4 318/3/4 319/3/4
f 318/2/4 285/2/4 320/2/4
f 319/3/4 318/3/4 320/3/4
f 320/2/4 285/2/4 321/2/4
f 319/1/4 320/1/4 322/1/4
f 320/3/4 321/3/4 322/3/4
f 321/2/4 285/2/4 323/2/4
f 322/3/4 321/3/4 323/3/4
f 285/3/4 283/3/4 324/3/4
f 323/2/4 285/2/4 324/2/4
f 322/1/4 323/1/4 325/1/4
f 282/3/4 286/3/4 325/3/4
f 286/1/4 289/1/4 325/1/4
f 319/1/4 322/1/4 325/1/4
f 316/1/4 319/1/4 325/1/4
f 313/1/4 316/1/4 325/1/4
f 310/1/4 313/1/4 325/1/4
f 307/1/4 310/1/4 325/1/4
f 304/1/4 307/1/4 325/1/4
f 301/1/4 304/1/4 325/1/4
f 298/1/4 301/1/4 325/1/4
f 295/1/4 298/1/4 325/1/4
f 292/1/4 295/1/4 325/1/4
f 289/1/4 292/1/4 325/1/4
f 323/3/4 324/3/4 326/3/4
f 325/1/4 323/1/4 326/1/4
f 282/3/4 325/3/4 327/3/4
f 325/3/4 326/3/4 327/3/4
f 324/3/4 283/3/4 328/3/4
f 327/3/4 326/3/4 328/3/4
f 326/3/4 324/3/4 328/3/4
f 331/3/5 330/3/5 329/3/5
f 332/3/5 330/3/5 331/3/5
f 333/3/5 331/3/5 329/3/5
f 333/1/5 332/1/5 331/1/5
f 334/3/5 330/3/5 332/3/5
f 334/1/5 332/1/5 333/1/5
f 335/3/5 333/3/5 329/3/5
f 335/3/5 334/3/5 333/3/5
f 336/3/5 330/3/5 334/3/5
f 336/3/5 334/3/5 335/3/5
f 337/3/6 338/3/6 339/3/6
f 339/3/6 338/3/6 340/3/6
f 340/3/6 338/3/6 341/3/6
f 341/3/6 338/3/6 342/3/6
f 343/3/6 344/3/6 347/3/6
f 347/3/6 344/3/6 348/3/6
f 344/1/6 345/1/6 349/1/6
f 348/3/6 344/3/6 349/3/6
f 349/1/6 345/1/6 350/1/6
f 345/3/6 346/3/6 351/3/6
f 350/1/6 345/1/6 351/1/6
f 351/3/6 346/3/6 352/3/6
f 353/3/6 354/3/6 359/3/6
f 354/2/6 355/2/6 360/2/6
f 359/3/6 354/3/6 360/3/6
f 355/3/6 356/3/6 361/3/6
f 360/2/6 355/2/6 361/2/6
f 356/1/6 357/1/6 362/1/6
f 361/3/6 356/3/6 362/3/6
f 362/1/6 357/1/6 363/1/6
f 357/3/6 358/3/6 364/3/6
f 363/1/6 357/1/6 364/1/6
f 364/3/6 358/3/6 365/3/6
f 366/3/6 367/3/6 372/3/6
f 367/2/6 368/2/6 373/2/6
f 372/3/6 367/3/6 373/3/6
f 368/3/6 369/3/6 374/3/6
f 373/2/6 368/2/6 374/2/6
f 369/1/6 370/1/6 375/1/6
f 374/3/6 369/3/6 375/3/6
f 375/1/6 370/1/6 376/1/6
f 370/3/6 371/3/6 377/3/6
f 376/1/6 370/1/6 377/1/6
f 377/3/6 371/3/6 378/3/6
f 379/3/6 380/3/6 385/3/6
f 380/2/6 381/2/6 386/2/6
f 385/3/6 380/3/6 386/3/6
f 381/3/6 382/3/6 387/3/6
f 386/2/6 381/2/6 387/2/6
f 382/1/6 383/1/6 388/1/6
f 387/3/6 382/3/6 388/3/6
f 388/1/6 383/1/6 389/1/6
f 383/3/6 384/3/6 390/3/6
f 389/1/6 383/1/6 390/1/6
f 390/3/6 384/3/6 391/3/6
f 392/3/6 393/3/6 398/3/6
f 393/2/6 394/2/6 399/2/6
f 398/3/6 393/3/6 399/3/6
f 394/3/6 395/3/6 400/3/6
f 399/2/6 394/2/6 400/2/6
f 395/1/6 396/1/6 401/1/6
f 400/3/6 395/3/6 401/3/6
f 401/1/6 396/1/6 402/1/6
f 396/3/6 397/3/6 403/3/6
f 402/1/6 396/1/6 403/1/6
f 403/3/6 397/3/6 404/3/6
f 405/3/6 406/3/6 411/3/6
f 406/2/6 407/2/6 412/2/6
f 411/3/6 406/3/6 412/3/6
f 407/3/6 408/3/6 413/3/6
f 412/2/6 407/2/6 413/2/6
f 408/1/6 409/1/6 414/1/6
f 413/3/6 408/3/6 414/3/6
f 414/1/6 409/1/6 415/1/6
f 409/3/6 410/3/6 416/3/6
f 415/1/6 409/1/6 416/1/6
f 416/3/6 410/3/6 417/3/6
f 418/3/6 419/3/6 424/3/6
f 419/2/6 420/2/6 425/2/6
f 424/3/6 419/3/6 425/3/6
f 420/3/6 421/3/6 426/3/6
f 425/2/6 420/2/6 426/2/6
f 421/1/6 422/1/6 427/1/6
f 426/3/6 421/3/6 427/3/6
f 427/1/6 422/1/6 428/1/6
f 422/3/6 423/3/6 429/3/6
f 428/1/6 422/1/6 429/1/6
f 429/3/6 423/3/6 430/3/6
f 431/3/6 432/3/6 437/3/6
f 432/2/6 433/2/6 438/2/6
f 437/3/6 432/3/6 438/3/6
f 433/3/6 434/3/6 439/3/6
f 438/2/6 433/2/6 439/2/6
f 434/1/6 435/1/6 440/1/6
f 439/3/6 434/3/6 440/3/6
f 440/1/6 435/1/6 441/1/6
f 435/3/6 436/3/6 442/3/6
f 441/1/6 435/1/6 442/1/6
f 442/3/6 436/3/6 443/3/6
f 444/3/6 445/3/6 450/3/6
f 445/2/6 446/2/6 451/2/6
f 450/3/6 445/3/6 451/3/6
f 446/3/6 447/3/6 452/3/6
f 451/2/6 446/2/6 452/2/6
f 447/1/6 448/1/6 453/1/6
f 452/3/6 447/3/6 453/3/6
f 453/1/6 448/1/6 454/1/6
f 448/3/6 449/3/6 455/3/6
f 454/1/6 448/1/6 455/1/6
f 455/3/6 449/3/6 456/3/6
f 457/3/6 458/3/6 463/3/6
f 458/2/6 459/2/6 464/2/6
f 463/3/6 458/3/6 464/3/6
f 459/3/6 460/3/6 465/3/6
f 464/2/6 459/2/6 465/2/6
f 460/1/6 461/1/6 466/1/6
f 465/3/6 460/3/6 466/3/6
f 466/1/6 461/1/6 467/1/6
f 461/3/6 462/3/6 468/3/6
f 467/1/6 461/1/6 468/1/6
f 468/3/6 462/3/6 469/3/6
f 470/3/6 471/3/6 476/3/6
f 471/2/6 472/2/6 477/2/6
f 476/3/6 471/3/6 477/3/6
f 472/3/6 473/3/6 478/3/6
f 477/2/6 472/2/6 478/2/6
f 473/1/6 474/1/6 479/1/6
f 478/3/6 473/3/6 479/3/6
f 479/1/6 474/1/6 480/1/6
f 474/3/6 475/3/6 481/3/6
f 480/1/6 474/1/6 481/1/6
f 481/3/6 475/3/6 482/3/6
f 483/3/6 484/3/6 489/3/6
f 484/2/6 485/2/6 490/2/6
f 489/3/6 484/3/6 490/3/6
f 485/3/6 486/3/6 491/3/6
f 490/2/6 485/2/6 491/2/6
f 486/1/6 487/1/6 492/1/6
f 491/3/6 486/3/6 492/3/6
f 492/1/6 487/1/6 493/1/6
f 487/3/6 488/3/6 494/3/6
f 493/1/6 487/1/6 494/1/6
f 494/3/6 488/3/6 495/3/6
f 496/3/6 497/3/6 502/3/6
f 497/2/6 498/2/6 503/2/6
f 502/3/6 497/3/6 503/3/6
f 498/3/6 499/3/6 504/3/6
f 503/2/6 498/2/6 504/2/6
f 499/1/6 500/1/6 505/1/6
f 504/3/6 499/3/6 505/3/6
f 500/3/6 501/3/6 506/3/6
f 505/1/6 500/1/6 506/1/6
f 506/3/6 501/3/6 507/3/6
f 508/3/6 509/3/6 512/3/6
f 509/2/6 510/2/6 513/2/6
f 512/3/6 509/3/6 513/3/6
f 510/3/6 511/3/6 514/3/6
f 513/2/6 510/2/6 514/2/6
f 514/3/6 511/3/6 515/3/6
f 516/3/6 517/3/6 518/3/6
f 518/3/6 517/3/6 519/3/6
